%!PS-Adobe-3.0 EPSF-3.0
%%Creator: cairo 1.14.6 (http://cairographics.org)
%%CreationDate: Sat May 25 10:25:48 2019
%%Pages: 1
%%DocumentData: Clean7Bit
%%LanguageLevel: 2
%%BoundingBox: 0 -1 134 59
%%EndComments
%%BeginProlog
save
50 dict begin
/q { gsave } bind def
/Q { grestore } bind def
/cm { 6 array astore concat } bind def
/w { setlinewidth } bind def
/J { setlinecap } bind def
/j { setlinejoin } bind def
/M { setmiterlimit } bind def
/d { setdash } bind def
/m { moveto } bind def
/l { lineto } bind def
/c { curveto } bind def
/h { closepath } bind def
/re { exch dup neg 3 1 roll 5 3 roll moveto 0 rlineto
      0 exch rlineto 0 rlineto closepath } bind def
/S { stroke } bind def
/f { fill } bind def
/f* { eofill } bind def
/n { newpath } bind def
/W { clip } bind def
/W* { eoclip } bind def
/BT { } bind def
/ET { } bind def
/pdfmark where { pop globaldict /?pdfmark /exec load put }
    { globaldict begin /?pdfmark /pop load def /pdfmark
    /cleartomark load def end } ifelse
/BDC { mark 3 1 roll /BDC pdfmark } bind def
/EMC { mark /EMC pdfmark } bind def
/cairo_store_point { /cairo_point_y exch def /cairo_point_x exch def } def
/Tj { show currentpoint cairo_store_point } bind def
/TJ {
  {
    dup
    type /stringtype eq
    { show } { -0.001 mul 0 cairo_font_matrix dtransform rmoveto } ifelse
  } forall
  currentpoint cairo_store_point
} bind def
/cairo_selectfont { cairo_font_matrix aload pop pop pop 0 0 6 array astore
    cairo_font exch selectfont cairo_point_x cairo_point_y moveto } bind def
/Tf { pop /cairo_font exch def /cairo_font_matrix where
      { pop cairo_selectfont } if } bind def
/Td { matrix translate cairo_font_matrix matrix concatmatrix dup
      /cairo_font_matrix exch def dup 4 get exch 5 get cairo_store_point
      /cairo_font where { pop cairo_selectfont } if } bind def
/Tm { 2 copy 8 2 roll 6 array astore /cairo_font_matrix exch def
      cairo_store_point /cairo_font where { pop cairo_selectfont } if } bind def
/g { setgray } bind def
/rg { setrgbcolor } bind def
/d1 { setcachedevice } bind def
%%EndProlog
%%BeginSetup
%%EndSetup
%%Page: 1 1
%%BeginPageSetup
%%PageBoundingBox: 0 -1 134 59
%%EndPageSetup
q 0 -1 134 60 rectclip q
0 g
72.902 37.042 m 77.102 37.042 l 77.102 36.292 l 73.746 36.292 l 73.746 
33.659 l 77.082 33.659 l 77.082 32.913 l 73.746 32.913 l 73.746 30.21 l 
77.102 30.21 l 77.102 29.464 l 72.902 29.464 l h
67.738 37.042 m 68.586 37.042 l 68.586 30.21 l 71.836 30.21 l 71.836 29.464
 l 67.738 29.464 l h
59.25 33.253 m 59.25 31.468 60.59 30.077 62.359 30.077 c 64.152 30.077 
65.465 31.522 65.465 33.253 c 65.465 34.98 64.152 36.425 62.352 36.425 c
 60.57 36.425 59.25 35.015 59.25 33.265 c h
58.398 33.23 m 58.398 35.565 60.211 37.175 62.352 37.175 c 64.57 37.175
 66.305 35.472 66.305 33.253 c 66.305 31.026 64.582 29.331 62.352 29.331
 c 60.109 29.331 58.398 31.058 58.398 33.222 c h
57.629 31.503 m 57.137 30.335 55.816 29.331 54.145 29.331 c 51.902 29.331
 50.191 31.058 50.191 33.253 c 50.191 35.413 51.863 37.175 54.137 37.175
 c 56.008 37.175 57.188 35.925 57.629 34.96 c 56.715 34.96 l 56.461 35.413
 55.602 36.425 54.137 36.425 c 52.363 36.425 51.031 35.022 51.031 33.265
 c 51.031 31.468 52.375 30.077 54.137 30.077 c 55.723 30.077 56.531 31.214
 56.715 31.503 c h
48.074 39.374 m 48.352 38.823 l 45.883 37.503 l 45.637 37.995 l h
44.859 37.042 m 49.059 37.042 l 49.059 36.292 l 45.699 36.292 l 45.699 
33.659 l 49.039 33.659 l 49.039 32.913 l 45.699 32.913 l 45.699 30.21 l 
49.059 30.21 l 49.059 29.464 l 44.859 29.464 l 44.859 37.042 l f
113.645 22.784 m 113.645 22.796 l 113.645 24.128 114.586 25.378 116.102
 25.378 c 117.648 25.378 118.551 24.046 118.551 22.776 c 118.551 22.288 
118.41 21.792 118.152 21.362 c 117.344 22.167 l 116.426 21.233 l 117.207
 20.46 l 116.891 20.292 116.523 20.194 116.113 20.194 c 114.637 20.194 113.645
 21.405 113.645 22.784 c 120 20.14 m 119.883 20.14 119.52 20.179 119.25 
20.362 c 119.77 21.034 120.074 21.874 120.074 22.784 c 120.074 24.937 118.387
 26.718 116.09 26.718 c 113.98 26.718 112.117 25.151 112.117 22.726 c 112.117
 22.714 l 112.117 21.292 112.922 19.968 114.203 19.304 c 114.207 19.304 
114.207 19.304 114.211 19.3 c 114.293 19.257 114.379 19.218 114.465 19.179
 c 114.961 18.956 115.508 18.831 116.09 18.831 c 116.758 18.831 117.422 
19.003 117.996 19.315 c 118.078 19.358 118.156 19.405 118.234 19.452 c 118.582
 19.222 119.145 18.831 120.031 18.831 c 120.227 18.831 l 120.227 20.14 l
 h
129.004 26.577 m 133.254 26.577 l 133.254 25.233 l 130.527 25.233 l 130.527
 23.515 l 133.203 23.515 l 133.203 22.171 l 130.527 22.171 l 130.527 20.339
 l 133.254 20.339 l 133.254 18.995 l 129.004 18.995 l h
123.258 26.577 m 123.258 21.917 l 123.258 21.538 123.266 21.147 123.473
 20.769 c 123.656 20.44 123.992 20.194 124.496 20.194 c 125.008 20.194 125.344
 20.433 125.508 20.737 c 125.723 21.108 125.723 21.507 125.723 21.917 c 
125.723 26.577 l 127.25 26.577 l 127.25 21.917 l 127.25 20.788 127.035 20.112
 126.453 19.581 c 125.988 19.14 125.344 18.855 124.508 18.855 c 123.965 
18.855 123.094 18.995 122.527 19.581 c 121.832 20.245 121.73 20.901 121.73
 21.917 c 121.73 26.577 l h
109.059 26.577 m 110.586 26.577 l 110.586 18.995 l 109.059 18.995 l h
105.453 21.323 m 105.426 26.577 l 106.887 26.577 l 106.887 18.995 l 105.535
 18.995 l 102.047 24.241 l 102.074 18.995 l 100.609 18.995 l 100.609 26.577
 l 101.973 26.577 l h
92.477 18.995 m 92.477 26.577 l 94.004 26.577 l 94.004 23.534 l 96.922 
23.534 l 96.922 26.577 l 98.445 26.577 l 98.445 18.995 l 96.922 18.995 l
 96.922 22.19 l 94.004 22.19 l 94.004 18.995 l h
91.227 21.538 m 90.766 19.972 89.293 18.855 87.52 18.855 c 85.207 18.855
 83.547 20.687 83.547 22.796 c 83.547 24.812 85.113 26.718 87.512 26.718
 c 89.691 26.71 90.93 25.101 91.227 23.995 c 89.617 23.995 l 89.383 24.519
 88.707 25.366 87.5 25.378 c 86.023 25.378 85.074 24.14 85.074 22.796 c 
85.074 21.413 86.066 20.194 87.512 20.194 c 88.863 20.194 89.477 21.261 
89.617 21.538 c h
78.109 26.577 m 82.359 26.577 l 82.359 25.233 l 79.637 25.233 l 79.637 
23.515 l 82.309 23.515 l 82.309 22.171 l 79.637 22.171 l 79.637 20.339 l
 82.359 20.339 l 82.359 18.995 l 78.109 18.995 l h
73.336 25.233 m 71.699 25.233 l 71.699 26.577 l 76.492 26.577 l 76.492 
25.233 l 74.863 25.233 l 74.863 18.995 l 73.336 18.995 l h
66.988 21.71 m 64.664 26.577 l 66.312 26.577 l 67.746 23.136 l 69.188 26.577
 l 70.828 26.577 l 68.512 21.71 l 68.512 18.995 l 66.988 18.995 l h
60.473 26.577 m 62 26.577 l 62 20.339 l 64.488 20.339 l 64.488 18.995 l
 60.473 18.995 l h
52.609 22.784 m 52.609 21.405 53.602 20.194 55.078 20.194 c 56.613 20.194
 57.512 21.526 57.512 22.776 c 57.512 24.046 56.613 25.378 55.066 25.378
 c 53.551 25.378 52.609 24.128 52.609 22.796 c h
51.082 22.726 m 51.082 25.151 52.945 26.718 55.055 26.718 c 57.348 26.718
 59.039 24.937 59.039 22.784 c 59.039 20.636 57.359 18.855 55.047 18.855
 c 52.723 18.855 51.082 20.687 51.082 22.714 c h
46.41 22.94 m 47.312 22.94 l 47.66 22.94 48 22.972 48.305 23.136 c 48.582
 23.276 48.809 23.616 48.809 24.097 c 48.809 24.577 48.582 24.897 48.285
 25.038 c 47.98 25.202 47.633 25.233 47.254 25.233 c 46.41 25.233 l h
47.18 26.577 m 48.461 26.577 48.973 26.394 49.414 26.054 c 49.965 25.601
 50.273 24.866 50.273 24.116 c 50.273 23.37 49.953 22.593 49.473 22.202 
c 48.961 21.784 48.449 21.597 47.344 21.597 c 46.41 21.597 l 46.41 18.995
 l 44.887 18.995 l 44.887 26.577 l 47.18 26.577 l f
29.906 42.284 m 27.891 39.909 25.293 36.835 22.977 33.964 c 13.961 45.108
 5.578 54.046 0.023 58.202 c 0.02 58.206 l 0.02 58.202 l 2.918 51.55 10.051
 41.304 19.402 29.401 c 14.551 23.108 4.918 10.62 0.004 0.003 c 0 0.003 
l 0.004 0.003 l 0.004 -0.001 l 0.004 0.003 l 6.695 5.276 15.668 15.706 22.973
 24.917 c 31.965 13.749 40.523 4.19 46.043 0.062 c 46.047 0.058 l 46.047
 0.058 46.047 0.058 46.047 0.062 c 46.047 0.062 46.047 0.058 46.047 0.058
 c 46.043 0.062 l 43.164 6.671 35.836 17.605 26.543 29.48 c 30.188 34.163
 31.516 35.831 35.098 40.89 c 38.988 46.378 45.285 54.233 48.664 52.593 
c 43.621 55.456 36.43 49.98 29.906 42.284 c f
14.391 31.46 m 14.398 31.312 14.359 31.136 14.281 30.991 c 14.203 30.847
 14.09 30.714 13.961 30.585 c 13.832 30.456 13.688 30.339 13.527 30.237 
c 13.363 30.136 13.199 30.054 13.035 29.987 c 12.898 30.214 l 13.09 30.312
 13.27 30.421 13.434 30.558 c 13.598 30.69 13.715 30.819 13.781 30.94 c 
13.629 30.976 13.523 31.038 13.457 31.136 c 13.391 31.233 13.355 31.339 
13.355 31.448 c 13.355 31.597 13.406 31.718 13.512 31.815 c 13.617 31.913
 13.734 31.96 13.875 31.96 c 14.023 31.96 14.145 31.909 14.242 31.804 c 
14.34 31.698 14.379 31.597 14.391 31.46 c 11.504 31.437 m 11.402 31.167 
11.258 30.866 11.078 30.538 c 10.895 30.206 10.676 29.858 10.418 29.487 
c 10.16 29.116 9.875 28.733 9.566 28.339 c 9.258 27.948 8.926 27.55 8.574
 27.147 c 8.223 26.749 7.859 26.355 7.484 25.964 c 7.48 25.968 l 7.574 26.448
 7.719 26.94 7.91 27.444 c 8.105 27.952 8.328 28.44 8.578 28.917 c 8.828
 29.394 9.09 29.839 9.375 30.257 c 9.656 30.675 9.93 31.038 10.195 31.355
 c 10.457 31.667 10.703 31.913 10.93 32.097 c 11.156 32.28 11.34 32.37 11.477
 32.37 c 11.527 32.37 11.582 32.347 11.617 32.288 c 11.652 32.23 11.656 
32.171 11.656 32.136 c 11.656 31.94 11.605 31.706 11.504 31.437 c 11.859
 32.605 m 11.754 32.679 11.625 32.714 11.469 32.714 c 11.27 32.714 11.047
 32.647 10.805 32.511 c 10.559 32.37 10.305 32.183 10.039 31.937 c 9.777
 31.69 9.508 31.401 9.234 31.065 c 8.961 30.733 8.699 30.366 8.449 29.976
 c 8.195 29.581 7.961 29.167 7.738 28.73 c 7.516 28.296 7.324 27.855 7.16
 27.409 c 6.992 26.96 6.863 26.519 6.77 26.073 c 6.699 25.757 6.656 25.452
 6.637 25.155 c 6.379 24.917 6.145 24.71 5.945 24.534 c 5.676 24.3 5.445
 24.105 5.242 23.956 c 5.035 23.8 4.914 23.706 4.746 23.616 c 4.844 23.245
 l 5.008 23.319 5.238 23.487 5.461 23.651 c 5.66 23.808 5.895 24.007 6.164
 24.241 c 6.305 24.366 6.461 24.503 6.629 24.655 c 6.641 24.397 6.676 24.167
 6.742 23.972 c 6.82 23.741 6.922 23.554 7.047 23.401 c 7.176 23.253 7.32
 23.147 7.488 23.077 c 7.656 23.007 7.828 22.972 8.012 22.972 c 8.23 22.972
 8.441 23.03 8.656 23.14 c 8.867 23.249 9.066 23.39 9.258 23.562 c 9.414
 23.698 9.566 23.866 9.703 24.03 c 9.477 24.272 l 9.445 24.237 9.41 24.198
 9.379 24.163 c 9.234 24.003 9.09 23.862 8.938 23.741 c 8.785 23.616 8.633
 23.515 8.48 23.437 c 8.328 23.358 8.176 23.319 8.023 23.319 c 7.797 23.319
 7.621 23.413 7.5 23.601 c 7.375 23.788 7.301 24.073 7.289 24.46 c 7.285
 24.589 7.289 24.737 7.297 24.874 c 7.301 25.03 7.32 25.171 7.352 25.323
 c 7.465 25.433 7.582 25.562 7.699 25.687 c 7.746 25.73 7.785 25.776 7.84
 25.827 c 7.926 25.909 8.027 26.011 8.145 26.128 c 8.258 26.245 8.402 26.401
 8.57 26.589 c 8.742 26.776 8.941 27.007 9.176 27.28 c 9.406 27.55 9.684
 27.882 10.004 28.276 c 10.164 28.476 10.324 28.687 10.488 28.917 c 10.648
 29.147 10.805 29.386 10.953 29.632 c 11.102 29.874 11.242 30.12 11.371 
30.366 c 11.5 30.612 11.609 30.851 11.707 31.073 c 11.801 31.296 11.879 
31.507 11.934 31.698 c 11.988 31.89 12.016 32.054 12.016 32.19 c 12.016 
32.39 11.965 32.526 11.859 32.605 c f
22.875 43.14 m 22.844 43.175 22.691 43.163 22.625 43.167 c 22.434 43.175
 22.289 43.175 22.129 43.194 c 22.047 43.202 21.973 43.218 21.898 43.226
 c 21.586 43.269 21.293 43.327 21.035 43.409 c 20.969 43.433 20.906 43.452
 20.84 43.476 c 20.645 43.534 20.473 43.628 20.305 43.726 c 20.191 43.792
 20.082 43.858 19.977 43.925 c 19.871 43.991 19.762 44.058 19.672 44.14 
c 19.578 44.226 19.484 44.304 19.398 44.39 c 19.309 44.476 19.227 44.569
 19.148 44.663 c 18.656 45.226 18.281 45.882 17.996 46.655 c 17.996 46.659
 17.996 46.663 17.992 46.659 c 17.992 46.655 17.984 46.655 17.988 46.647
 c 18.012 46.292 18.059 45.952 18.145 45.644 c 18.23 45.335 18.312 45.038
 18.453 44.784 c 18.523 44.659 18.594 44.538 18.672 44.421 c 18.746 44.304
 18.832 44.198 18.914 44.085 c 18.996 43.972 19.102 43.886 19.199 43.788
 c 19.297 43.69 19.387 43.608 19.504 43.507 c 19.617 43.405 20.062 43.132
 20.422 42.983 c 21.773 42.433 22.453 42.284 22.895 41.315 c 22.898 41.374
 22.895 41.429 22.895 41.487 c 22.898 42.038 22.906 42.612 22.875 43.14 
c 22.703 53.933 m 22.629 53.909 22.066 53.843 21.926 53.823 c 21.887 53.858
 21.883 53.937 21.824 53.948 c 21.801 53.956 21.773 53.944 21.738 53.94 
c 21.574 53.933 21.422 53.905 21.277 53.886 c 21.246 53.882 21.219 53.882
 21.191 53.878 c 21.191 53.886 l 21.191 53.886 21.164 53.929 21.156 53.944
 c 21.152 53.964 20.992 54.19 20.918 54.304 c 20.879 54.362 20.84 54.413
 20.824 54.468 c 20.812 54.503 20.824 54.546 20.816 54.581 c 20.809 54.612
 20.773 54.647 20.75 54.659 c 20.723 54.671 20.676 54.667 20.664 54.687 
c 20.652 54.702 20.645 54.749 20.633 54.78 c 20.598 54.874 20.559 54.952
 20.512 55.026 c 20.488 55.065 20.355 55.292 20.312 55.312 c 20.293 55.319
 20.242 55.308 20.211 55.319 c 20.152 55.339 20.145 55.437 20.078 55.44 
c 20.035 55.444 19.887 55.319 19.855 55.3 c 19.668 55.167 19.312 54.909 
19.293 54.862 c 19.273 54.812 19.328 54.769 19.328 54.769 c 19.328 54.769
 19.398 54.714 19.406 54.679 c 19.414 54.651 19.406 54.628 19.41 54.597 
c 19.414 54.565 19.609 54.257 19.781 54.14 c 19.816 54.116 19.867 54.112
 19.871 54.085 c 19.879 54.054 19.848 54.022 19.852 53.987 c 19.867 53.909
 19.961 53.897 20.008 53.855 c 20.062 53.804 20.098 53.718 20.145 53.651
 c 20.191 53.585 20.219 53.55 20.262 53.48 c 20.262 53.48 20.18 53.28 19.977
 53.433 c 19.625 53.749 18.719 54.276 18.328 54.48 c 17.68 54.792 16.656
 55.265 16.645 55.276 c 16.625 55.284 16.535 55.335 16.531 55.319 c 16.527
 55.308 16.738 54.995 16.848 54.761 c 16.887 54.679 17.156 54.226 17.176
 54.163 c 17.094 54.167 16.996 54.272 16.973 54.257 c 16.953 54.245 16.98
 54.163 17.008 54.073 c 17.039 53.983 17.199 53.437 17.477 53.019 c 17.512
 52.964 17.531 52.929 17.516 52.913 c 17.48 52.878 17.301 53.011 17.277 
52.995 c 17.277 52.995 17.258 52.987 17.277 52.925 c 17.301 52.866 17.422
 52.589 17.848 51.964 c 17.832 51.944 17.773 51.956 17.746 51.925 c 17.723
 51.894 17.777 51.843 17.812 51.784 c 17.848 51.726 18.004 51.507 18.082
 51.409 c 18.156 51.315 18.379 51.093 18.516 50.991 c 18.656 50.89 18.965
 50.726 19.059 50.679 c 19.156 50.636 19.465 50.546 19.555 50.534 c 19.645
 50.522 19.711 50.515 19.742 50.503 c 19.773 50.495 19.848 50.429 19.895
 50.405 c 20.348 50.175 20.648 50.151 20.941 50.198 c 21.094 50.226 21.184
 50.233 21.246 50.198 c 21.309 50.159 21.508 49.995 21.539 49.956 c 21.539
 49.956 21.43 49.741 21.387 49.659 c 21.309 49.495 20.941 48.886 20.906 
48.843 c 20.875 48.8 20.824 48.667 20.77 48.683 c 20.75 48.69 20.184 49.007
 20.07 49.093 c 19.957 49.183 19.109 49.808 18.961 49.913 c 18.863 49.983
 18.754 50.042 18.605 50.054 c 18.305 50.081 18.094 49.886 17.961 49.714
 c 17.855 49.573 17.758 49.417 17.727 49.214 c 17.715 49.144 17.719 49.065
 17.711 48.983 c 17.695 48.823 17.723 48.667 17.77 48.558 c 17.859 48.355
 18.066 48.202 18.227 48.03 c 18.355 47.894 18.5 47.679 18.434 47.397 c 
18.426 47.37 18.402 47.339 18.418 47.308 c 18.438 47.272 18.75 47.581 18.824
 47.722 c 18.898 47.862 19.008 48.085 19.043 48.315 c 19.332 48.085 19.633
 47.866 19.957 47.671 c 19.918 47.62 19.867 47.55 19.844 47.507 c 19.816
 47.464 19.762 47.386 19.727 47.37 c 19.691 47.355 19.598 47.355 19.578 
47.312 c 19.555 47.265 19.594 47.206 19.586 47.147 c 19.578 47.108 19.535
 47.069 19.508 47.03 c 19.477 46.987 19.457 46.948 19.418 46.929 c 19.391
 46.909 19.363 46.909 19.328 46.897 c 19.309 46.89 19.289 46.878 19.266 
46.87 c 19.242 46.862 19.215 46.858 19.203 46.851 c 19.141 46.808 19.137
 46.745 19.172 46.679 c 19.188 46.651 19.199 46.624 19.211 46.605 c 19.234
 46.562 19.277 46.53 19.297 46.495 c 19.332 46.425 19.594 46.093 19.555 
45.929 c 19.52 45.897 19.484 45.886 19.422 45.882 c 19.363 45.878 19.324
 45.925 19.281 45.948 c 19.316 46.022 19.398 46.163 19.375 46.222 c 19.352
 46.28 19.332 46.276 19.266 46.323 c 19.199 46.37 18.457 47.081 18.402 47.159
 c 18.352 47.237 18.148 47.491 18.086 47.585 c 18.023 47.675 17.82 48.019
 17.773 48.015 c 17.738 48.015 17.676 47.894 17.676 47.878 c 17.672 47.858
 17.637 47.769 17.629 47.753 c 17.539 47.456 17.375 46.749 17.516 45.765
 c 17.672 44.659 18.238 43.812 18.457 43.562 c 18.465 43.55 18.473 43.546
 18.473 43.542 c 18.535 43.48 18.602 43.522 18.664 43.562 c 18.754 43.616
 18.781 43.647 18.844 43.73 c 18.859 43.753 18.906 43.823 18.926 43.823 
c 18.945 43.823 18.949 43.823 18.969 43.796 c 19.297 43.464 19.754 43.112
 20.371 42.862 c 20.555 42.784 20.723 42.718 20.887 42.655 c 21.887 42.261
 22.543 42.042 22.922 40.851 c 22.945 40.784 22.941 40.78 22.961 40.78 c
 22.977 40.78 22.988 40.827 22.996 40.855 c 23.375 42.085 24.016 42.308 
25.027 42.706 c 25.191 42.772 25.359 42.839 25.547 42.913 c 26.152 43.163
 26.605 43.511 26.934 43.839 c 27.031 43.761 27.102 43.655 27.227 43.597
 c 27.258 43.581 27.297 43.55 27.328 43.554 c 27.344 43.554 27.355 43.573
 27.371 43.589 c 27.555 43.772 28.188 44.636 28.355 45.815 c 28.496 46.8
 28.332 47.507 28.238 47.8 c 28.223 47.851 28.164 48.046 28.113 48.054 c
 28.07 48.058 28.031 48.015 27.988 47.956 c 27.961 47.913 27.926 47.866 
27.898 47.819 c 27.414 47.026 26.484 46.339 26.441 46.253 c 26.406 46.183
 26.496 46.089 26.52 46.007 c 26.48 45.983 26.434 45.948 26.383 45.94 c 
26.332 45.933 26.234 46.026 26.234 46.062 c 26.238 46.124 26.309 46.183 
26.344 46.222 c 26.406 46.292 26.453 46.362 26.488 46.456 c 26.504 46.507
 26.566 46.636 26.586 46.655 c 26.598 46.679 26.66 46.808 26.66 46.823 c
 26.656 46.851 26.621 46.897 26.598 46.913 c 26.57 46.925 26.426 46.968 
26.398 46.98 c 26.348 47.003 26.223 47.167 26.219 47.21 c 26.211 47.269 
26.25 47.327 26.227 47.374 c 26.203 47.413 26.125 47.401 26.078 47.425 c
 26.043 47.448 25.91 47.647 25.871 47.694 c 26.441 48.026 26.727 48.308 
26.809 48.355 c 26.844 48.124 26.871 47.983 27.035 47.757 c 27.199 47.526
 27.387 47.339 27.441 47.343 c 27.445 47.386 27.422 47.429 27.414 47.476
 c 27.379 47.706 27.535 47.937 27.566 48.003 c 27.602 48.069 27.777 48.226
 27.824 48.269 c 27.875 48.312 28.039 48.472 28.066 48.554 c 28.094 48.636
 28.152 48.823 28.148 48.995 c 28.145 49.171 28.086 49.366 28.074 49.448
 c 28.059 49.526 27.926 49.679 27.871 49.769 c 27.816 49.858 27.52 50.058
 27.395 50.081 c 27.27 50.101 27.172 50.097 26.996 50.011 c 26.816 49.921
 26.25 49.448 26.117 49.351 c 25.898 49.19 25.305 48.792 25.152 48.741 c
 25.129 48.737 25.051 48.745 25.027 48.772 c 24.945 48.862 24.664 49.269
 24.527 49.534 c 24.426 49.733 24.297 49.976 24.336 50.042 c 24.355 50.069
 24.613 50.249 24.688 50.261 c 24.762 50.272 24.902 50.222 25.066 50.202
 c 25.23 50.187 25.773 50.331 25.926 50.44 c 26.078 50.55 26.035 50.522 
26.055 50.53 c 26.074 50.538 26.199 50.554 26.258 50.565 c 27.125 50.698
 27.812 51.491 27.93 51.667 c 28.047 51.847 28.082 51.905 28.062 51.956 
c 28.043 52.003 27.988 51.968 27.961 51.995 c 28.059 52.159 28.258 52.394
 28.297 52.472 c 28.336 52.554 28.465 52.73 28.508 52.858 c 28.539 52.948
 28.562 52.995 28.535 53.026 c 28.508 53.058 28.336 52.917 28.297 52.956
 c 28.258 52.995 28.395 53.112 28.652 53.632 c 28.863 54.062 28.859 54.253
 28.84 54.288 c 28.816 54.323 28.672 54.218 28.641 54.21 c 28.738 54.401
 28.871 54.601 28.969 54.792 c 29.07 54.983 29.297 55.343 29.289 55.351 
c 29.277 55.362 29.242 55.339 29.176 55.308 c 29.105 55.276 27.348 54.464
 27.016 54.276 c 26.684 54.089 25.816 53.46 25.816 53.46 c 25.773 53.421
 25.691 53.39 25.598 53.464 c 25.664 53.558 25.707 53.624 25.727 53.655 
c 25.75 53.687 25.82 53.804 25.871 53.855 c 25.918 53.897 26.016 53.909 
26.027 53.987 c 26.035 54.022 26 54.054 26.008 54.085 c 26.016 54.112 26.066
 54.12 26.098 54.14 c 26.133 54.159 26.227 54.249 26.254 54.28 c 26.281 
54.312 26.445 54.507 26.469 54.597 c 26.477 54.62 26.469 54.651 26.477 54.679
 c 26.484 54.714 26.527 54.73 26.551 54.769 c 26.562 54.784 26.59 54.839
 26.59 54.862 c 26.586 54.894 26.523 54.921 26.488 54.948 c 26.312 55.085
 25.957 55.343 25.918 55.374 c 25.887 55.397 25.848 55.444 25.801 55.44 
c 25.738 55.437 25.727 55.339 25.668 55.319 c 25.641 55.308 25.59 55.319
 25.566 55.312 c 25.523 55.292 25.43 55.132 25.402 55.085 c 25.379 55.038
 25.258 54.823 25.246 54.78 c 25.234 54.733 25.23 54.702 25.219 54.687 c
 25.203 54.667 25.156 54.671 25.129 54.659 c 25.109 54.647 25.07 54.612 
25.062 54.581 c 25.055 54.546 25.066 54.503 25.059 54.468 c 25.039 54.413
 24.969 54.327 24.945 54.284 c 24.918 54.237 24.742 53.98 24.723 53.944 
c 24.703 53.909 24.672 53.866 24.672 53.866 c 24.578 53.89 24.469 53.913
 24.387 53.921 c 24.297 53.929 24.062 53.956 24.062 53.956 c 23.965 53.98
 23.941 53.894 23.902 53.835 c 23.688 53.866 23.5 53.886 23.312 53.901 c
 23.273 53.905 23.273 53.968 23.273 54.007 c 23.27 54.046 23.266 54.612 
23.266 54.718 c 23.27 54.73 23.277 54.726 23.277 54.722 c 23.797 53.999 
24.312 54.022 24.469 54.093 c 24.574 54.214 24.789 54.577 24.906 54.944 
c 24.98 55.187 25.016 55.452 25 55.671 c 24.98 55.956 24.891 56.995 23.777
 57.437 c 22.676 57.874 21.77 57.37 21.578 57.261 c 21.504 57.222 21.469
 57.19 21.465 57.171 c 21.453 57.14 21.512 57.077 21.535 57.065 c 21.562
 57.058 21.609 57.077 21.648 57.073 c 21.684 57.073 21.836 56.956 21.895
 56.831 c 21.953 56.71 22.016 56.526 21.996 56.448 c 21.98 56.386 21.801
 56.296 21.641 55.952 c 21.527 56.069 21.445 55.784 21.41 55.71 c 21.379
 55.636 21.297 55.261 21.316 55.198 c 21.332 55.136 21.34 55.128 21.363 
55.101 c 21.293 54.929 21.176 54.737 21.156 54.667 c 21.137 54.597 21.055
 54.483 21.039 54.288 c 21.195 54.23 21.75 54.144 22.703 54.507 c 22.703
 54.351 22.707 53.948 22.707 53.948 c 22.707 53.944 22.707 53.937 22.703
 53.933 c 27.445 49.339 m 27.43 49.323 27.406 49.327 27.395 49.347 c 27.152
 49.687 l 27.141 49.702 27.145 49.726 27.16 49.733 c 27.27 49.815 l 27.285
 49.823 27.309 49.819 27.316 49.808 c 27.328 49.788 27.324 49.769 27.309
 49.757 c 27.262 49.722 l 27.246 49.714 27.242 49.69 27.254 49.675 c 27.293
 49.62 l 27.305 49.605 27.328 49.601 27.344 49.608 c 27.375 49.636 l 27.391
 49.644 27.414 49.64 27.426 49.628 c 27.438 49.608 27.434 49.589 27.418 
49.577 c 27.383 49.554 l 27.367 49.542 27.363 49.519 27.375 49.503 c 27.418
 49.444 l 27.43 49.429 27.449 49.429 27.465 49.437 c 27.512 49.472 l 27.527
 49.483 27.551 49.48 27.562 49.464 c 27.574 49.448 27.57 49.425 27.555 49.413
 c h
27.008 49.534 m 27 49.53 l 26.984 49.519 26.98 49.495 26.992 49.48 c 27.039
 49.417 l 27.051 49.401 27.07 49.394 27.082 49.401 c 27.09 49.409 27.105
 49.433 27.109 49.452 c 27.109 49.452 27.117 49.472 27.09 49.507 c 27.066
 49.538 27.043 49.562 27.008 49.534 c 27.34 49.261 m 27.32 49.245 27.297
 49.245 27.281 49.257 c 27.168 49.339 l 27.152 49.351 27.129 49.355 27.121
 49.347 c 27.109 49.339 27.113 49.319 27.125 49.304 c 27.203 49.202 l 27.215
 49.187 27.211 49.163 27.195 49.151 c 27.191 49.147 l 27.176 49.136 27.152
 49.14 27.141 49.155 c 26.891 49.487 l 26.879 49.503 26.879 49.526 26.895
 49.538 c 26.938 49.569 l 26.953 49.581 26.98 49.597 27 49.601 c 27 49.601
 27.094 49.632 27.152 49.554 c 27.188 49.503 27.207 49.46 27.184 49.413 
c 27.344 49.308 l 27.359 49.296 27.359 49.276 27.348 49.265 c h
27.059 49.046 m 27.043 49.034 27.02 49.038 27.008 49.054 c 26.754 49.386
 l 26.742 49.401 26.746 49.425 26.762 49.437 c 26.766 49.437 l 26.781 49.448
 26.805 49.448 26.816 49.433 c 27.07 49.101 l 27.082 49.085 27.078 49.062
 27.062 49.05 c h
26.645 49.241 m 26.633 49.245 26.621 49.245 26.605 49.233 c 26.59 49.222
 26.586 49.21 26.586 49.198 c 26.59 49.171 26.617 49.128 26.672 49.058 c
 26.727 48.987 26.758 48.948 26.781 48.94 c 26.797 48.937 26.809 48.937 
26.824 48.948 c 26.84 48.96 26.844 48.972 26.844 48.983 c 26.84 49.011 26.812
 49.054 26.758 49.124 c 26.703 49.194 26.672 49.233 26.645 49.241 c 26.918
 48.983 m 26.914 48.952 26.902 48.921 26.867 48.89 c 26.832 48.862 26.797
 48.858 26.766 48.866 c 26.715 48.878 26.68 48.921 26.609 49.011 c 26.539
 49.105 26.512 49.147 26.512 49.198 c 26.516 49.23 26.527 49.261 26.562 
49.288 c 26.598 49.315 26.633 49.319 26.664 49.315 c 26.715 49.304 26.75
 49.261 26.816 49.171 c 26.887 49.077 26.918 49.034 26.918 48.983 c 26.613
 48.706 m 26.598 48.694 26.574 48.698 26.562 48.714 c 26.312 49.05 l 26.301
 49.065 26.305 49.089 26.32 49.101 c 26.324 49.105 l 26.34 49.116 26.363
 49.112 26.375 49.097 c 26.582 48.815 l 26.594 48.8 26.617 48.796 26.633
 48.808 c 26.68 48.843 l 26.695 48.855 26.715 48.851 26.727 48.839 c 26.738
 48.819 26.734 48.8 26.719 48.788 c h
26.426 48.565 m 26.391 48.538 26.355 48.538 26.324 48.546 c 26.277 48.558
 26.242 48.601 26.176 48.694 c 26.105 48.788 26.078 48.835 26.082 48.882
 c 26.086 48.913 26.098 48.944 26.137 48.972 c 26.168 48.995 26.195 49.003
 26.227 48.995 c 26.258 48.991 26.289 48.968 26.316 48.937 c 26.281 48.909
 l 26.266 48.901 26.242 48.901 26.23 48.917 c 26.23 48.917 26.211 48.94 
26.176 48.917 c 26.16 48.905 26.156 48.894 26.156 48.882 c 26.156 48.851
 26.184 48.812 26.238 48.737 c 26.289 48.663 26.32 48.628 26.344 48.616 
c 26.355 48.612 26.371 48.612 26.387 48.62 c 26.414 48.644 26.406 48.675
 26.391 48.702 c 26.363 48.733 l 26.355 48.749 26.336 48.757 26.324 48.749
 c 26.312 48.741 26.297 48.745 26.289 48.761 c 26.277 48.776 26.281 48.796
 26.297 48.808 c 26.34 48.839 l 26.355 48.851 26.379 48.847 26.391 48.831
 c 26.449 48.749 l 26.5 48.679 26.484 48.608 26.426 48.565 c 25.883 48.605
 m 25.867 48.616 25.863 48.616 25.871 48.597 c 25.922 48.468 l 25.93 48.452
 25.949 48.444 25.965 48.456 c 25.977 48.464 l 25.992 48.472 25.992 48.491
 25.98 48.507 c h
26.152 48.382 m 26.137 48.37 26.113 48.374 26.102 48.386 c 26.082 48.405
 l 26.066 48.421 26.043 48.425 26.023 48.413 c 25.988 48.39 l 25.973 48.378
 25.965 48.355 25.973 48.339 c 25.984 48.312 l 25.992 48.292 25.984 48.269
 25.969 48.261 c 25.961 48.253 l 25.941 48.241 25.926 48.249 25.918 48.269
 c 25.773 48.675 l 25.766 48.694 25.773 48.718 25.789 48.726 c 25.793 48.73
 l 25.809 48.741 25.836 48.737 25.848 48.726 c 26.168 48.433 l 26.18 48.417
 26.18 48.397 26.164 48.386 c h
25.781 48.14 m 25.762 48.128 25.742 48.136 25.73 48.151 c 25.508 48.507
 l 25.5 48.522 25.504 48.546 25.52 48.554 c 25.523 48.558 l 25.543 48.569
 25.562 48.562 25.574 48.546 c 25.758 48.249 l 25.77 48.233 25.793 48.23
 25.809 48.237 c 25.855 48.269 l 25.875 48.28 25.895 48.276 25.906 48.261
 c 25.918 48.241 25.91 48.222 25.895 48.21 c h
25.344 48.366 m 25.324 48.358 25.32 48.335 25.328 48.319 c 25.5 48.015 
l 25.508 47.995 25.5 47.976 25.484 47.964 c 25.48 47.96 l 25.461 47.952 
25.441 47.96 25.43 47.976 c 25.262 48.28 l 25.254 48.3 25.23 48.304 25.215
 48.296 c 25.203 48.288 l 25.188 48.28 25.164 48.284 25.156 48.304 c 25.145
 48.319 25.152 48.343 25.172 48.351 c 25.32 48.433 l 25.336 48.444 25.359
 48.437 25.367 48.421 c 25.375 48.401 25.371 48.382 25.352 48.37 c h
25.172 47.804 m 25.152 47.796 25.133 47.804 25.125 47.819 c 24.941 48.198
 l 24.934 48.214 24.938 48.237 24.957 48.245 c 25.078 48.304 l 25.094 48.312
 25.117 48.304 25.125 48.288 c 25.133 48.269 25.125 48.249 25.109 48.241
 c 25.055 48.214 l 25.039 48.206 25.031 48.187 25.039 48.167 c 25.07 48.108
 l 25.078 48.089 25.102 48.081 25.117 48.089 c 25.152 48.108 l 25.172 48.116
 25.191 48.108 25.199 48.093 c 25.207 48.073 25.199 48.054 25.184 48.046
 c 25.148 48.026 l 25.129 48.019 25.121 47.999 25.133 47.98 c 25.164 47.917
 l 25.172 47.897 25.191 47.894 25.211 47.897 c 25.262 47.925 l 25.277 47.933
 25.301 47.929 25.309 47.909 c 25.316 47.894 25.309 47.87 25.293 47.862 
c h
24.906 47.718 m 24.898 47.69 24.871 47.667 24.832 47.651 c 24.793 47.636
 24.758 47.636 24.73 47.647 c 24.699 47.659 24.684 47.687 24.664 47.733 
c 24.703 47.749 l 24.719 47.757 24.742 47.749 24.75 47.73 c 24.75 47.73 
24.754 47.726 24.77 47.718 c 24.777 47.71 24.789 47.71 24.805 47.718 c 24.82
 47.726 24.832 47.733 24.836 47.745 c 24.84 47.757 24.836 47.772 24.828 
47.8 c 24.809 47.847 24.797 47.858 24.754 47.858 c 24.727 47.858 l 24.707
 47.858 24.676 47.862 24.656 47.866 c 24.656 47.866 24.613 47.878 24.586
 47.948 c 24.566 47.987 24.566 48.026 24.582 48.058 c 24.598 48.085 24.617
 48.105 24.652 48.116 c 24.688 48.132 24.719 48.132 24.742 48.12 c 24.777
 48.108 24.797 48.077 24.812 48.034 c 24.777 48.019 l 24.758 48.015 24.734
 48.022 24.73 48.038 c 24.73 48.038 24.727 48.042 24.715 48.054 c 24.703
 48.058 24.691 48.058 24.676 48.054 c 24.66 48.046 24.652 48.038 24.648 
48.026 c 24.645 48.015 24.648 47.999 24.656 47.98 c 24.672 47.94 24.68 47.933
 24.719 47.933 c 24.746 47.933 l 24.762 47.933 24.797 47.925 24.812 47.921
 c 24.812 47.921 24.867 47.905 24.898 47.831 c 24.918 47.78 24.922 47.749
 24.906 47.718 c 24.48 47.534 m 24.465 47.526 24.441 47.538 24.438 47.558
 c 24.305 47.956 l 24.301 47.972 24.312 47.991 24.328 47.999 c 24.457 48.042
 l 24.477 48.046 24.496 48.038 24.504 48.019 c 24.508 48.003 24.496 47.98
 24.48 47.976 c 24.426 47.956 l 24.406 47.952 24.395 47.933 24.402 47.913
 c 24.422 47.847 l 24.43 47.827 24.449 47.819 24.469 47.823 c 24.504 47.839
 l 24.523 47.843 24.543 47.835 24.551 47.815 c 24.555 47.8 24.547 47.776
 24.527 47.772 c 24.488 47.761 l 24.469 47.753 24.461 47.733 24.465 47.714
 c 24.488 47.647 l 24.496 47.628 24.516 47.616 24.531 47.624 c 24.59 47.644
 l 24.605 47.647 24.625 47.64 24.633 47.62 c 24.637 47.601 24.629 47.581
 24.609 47.577 c h
24.324 47.515 m 24.309 47.487 24.285 47.472 24.25 47.46 c 24.207 47.448
 24.172 47.46 24.148 47.48 c 24.105 47.507 24.09 47.558 24.059 47.671 c 
24.027 47.78 24.02 47.835 24.039 47.882 c 24.055 47.909 24.078 47.933 24.121
 47.944 c 24.156 47.956 24.188 47.952 24.211 47.937 c 24.242 47.921 24.266
 47.89 24.277 47.847 c 24.238 47.835 l 24.219 47.831 24.195 47.843 24.191
 47.862 c 24.18 47.87 l 24.168 47.878 24.156 47.882 24.141 47.878 c 24.121
 47.874 24.113 47.862 24.109 47.851 c 24.102 47.823 24.109 47.776 24.133
 47.69 c 24.156 47.605 24.172 47.558 24.191 47.538 c 24.199 47.526 24.215
 47.522 24.23 47.526 c 24.25 47.53 24.258 47.542 24.262 47.554 c 24.266 
47.569 24.266 47.585 24.262 47.605 c 24.336 47.624 l 24.348 47.581 24.344
 47.542 24.324 47.515 c 24 47.405 m 23.98 47.401 23.961 47.413 23.949 47.429
 c 23.816 47.632 l 23.805 47.647 23.801 47.647 23.805 47.628 c 23.848 47.413
 l 23.852 47.394 23.84 47.374 23.82 47.37 c 23.812 47.37 l 23.793 47.366
 23.773 47.378 23.773 47.397 c 23.691 47.808 l 23.688 47.827 23.699 47.843
 23.719 47.851 c 23.734 47.855 23.758 47.843 23.77 47.827 c 23.902 47.624
 l 23.91 47.605 23.918 47.608 23.914 47.628 c 23.871 47.843 l 23.867 47.862
 23.879 47.882 23.898 47.886 c 23.902 47.886 l 23.922 47.89 23.941 47.878
 23.945 47.858 c 24.027 47.448 l 24.031 47.429 24.02 47.409 24 47.405 c 
23.527 47.327 m 23.508 47.323 23.488 47.335 23.488 47.355 c 23.43 47.769
 l 23.426 47.788 23.441 47.808 23.461 47.812 c 23.594 47.827 l 23.613 47.831
 23.633 47.819 23.633 47.8 c 23.637 47.78 23.621 47.765 23.602 47.761 c 
23.547 47.753 l 23.527 47.749 23.512 47.73 23.516 47.71 c 23.523 47.644 
l 23.527 47.628 23.547 47.612 23.566 47.616 c 23.605 47.62 l 23.625 47.624
 23.641 47.608 23.645 47.589 c 23.648 47.573 23.633 47.554 23.613 47.55 
c 23.574 47.546 l 23.555 47.542 23.543 47.522 23.543 47.507 c 23.555 47.437
 l 23.559 47.417 23.574 47.401 23.594 47.405 c 23.652 47.413 l 23.672 47.417
 23.688 47.401 23.691 47.382 c 23.695 47.362 23.68 47.347 23.66 47.343 c
 h
23.359 47.308 m 23.34 47.304 23.32 47.319 23.32 47.339 c 23.281 47.757 
l 23.277 47.772 23.293 47.792 23.312 47.796 c 23.316 47.796 l 23.336 47.796
 23.355 47.78 23.355 47.765 c 23.395 47.347 l 23.398 47.327 23.383 47.312
 23.363 47.308 c h
23.203 47.319 m 23.184 47.3 23.156 47.284 23.121 47.284 c 23.074 47.28 
23.047 47.3 23.023 47.319 c 22.988 47.358 22.984 47.409 22.977 47.526 c 
22.973 47.644 22.973 47.698 23.004 47.737 c 23.02 47.761 23.051 47.78 23.094
 47.784 c 23.133 47.784 23.16 47.776 23.184 47.757 c 23.207 47.733 23.223
 47.698 23.227 47.655 c 23.184 47.651 l 23.168 47.651 23.148 47.667 23.145
 47.687 c 23.137 47.698 l 23.129 47.71 23.117 47.714 23.098 47.714 c 23.082
 47.714 23.07 47.706 23.062 47.694 c 23.051 47.671 23.051 47.62 23.055 47.53
 c 23.059 47.44 23.062 47.394 23.082 47.37 c 23.086 47.358 23.098 47.351
 23.117 47.355 c 23.137 47.355 23.145 47.362 23.152 47.374 c 23.16 47.386
 23.164 47.401 23.164 47.421 c 23.238 47.425 l 23.238 47.382 23.227 47.343
 23.203 47.319 c 22.875 47.308 m 22.852 47.288 22.82 47.276 22.777 47.276
 c 22.734 47.276 22.703 47.288 22.684 47.312 c 22.66 47.335 22.652 47.366
 22.652 47.417 c 22.695 47.417 l 22.715 47.417 22.73 47.397 22.73 47.382
 c 22.73 47.382 22.73 47.374 22.742 47.362 c 22.75 47.355 22.762 47.347 
22.777 47.347 c 22.797 47.347 22.809 47.351 22.816 47.358 c 22.824 47.37
 22.828 47.39 22.832 47.413 c 22.832 47.464 22.82 47.48 22.785 47.495 c 
22.758 47.507 l 22.742 47.515 22.715 47.53 22.699 47.542 c 22.699 47.542
 22.66 47.569 22.66 47.644 c 22.66 47.69 22.676 47.726 22.703 47.749 c 22.723
 47.765 22.754 47.776 22.789 47.776 c 22.824 47.772 22.855 47.765 22.875
 47.745 c 22.898 47.718 22.906 47.687 22.906 47.64 c 22.863 47.64 l 22.848
 47.64 22.828 47.655 22.828 47.675 c 22.828 47.675 22.828 47.679 22.82 47.69
 c 22.812 47.702 22.801 47.706 22.785 47.706 c 22.77 47.706 22.758 47.702
 22.754 47.694 c 22.742 47.683 22.738 47.667 22.738 47.644 c 22.738 47.605
 22.742 47.593 22.777 47.577 c 22.801 47.569 l 22.82 47.562 22.848 47.546
 22.863 47.53 c 22.863 47.53 22.906 47.499 22.906 47.417 c 22.906 47.366
 22.898 47.331 22.875 47.308 c 22.426 47.327 m 22.402 47.312 22.371 47.3
 22.328 47.304 c 22.285 47.312 22.254 47.323 22.234 47.347 c 22.215 47.374
 22.211 47.405 22.215 47.456 c 22.258 47.452 l 22.277 47.448 22.293 47.433
 22.293 47.413 c 22.293 47.413 22.293 47.405 22.301 47.39 c 22.305 47.382
 22.316 47.378 22.336 47.374 c 22.352 47.37 22.363 47.378 22.375 47.386 
c 22.383 47.394 22.391 47.409 22.395 47.437 c 22.398 47.487 22.391 47.503
 22.355 47.519 c 22.332 47.534 l 22.316 47.546 22.289 47.562 22.273 47.573
 c 22.273 47.573 22.238 47.608 22.246 47.683 c 22.25 47.726 22.27 47.761
 22.297 47.78 c 22.32 47.796 22.348 47.804 22.383 47.8 c 22.422 47.796 22.449
 47.78 22.469 47.761 c 22.488 47.733 22.496 47.698 22.488 47.651 c 22.449
 47.655 l 22.43 47.655 22.414 47.675 22.418 47.694 c 22.418 47.694 22.418
 47.698 22.406 47.714 c 22.402 47.722 22.395 47.73 22.375 47.733 c 22.359
 47.733 22.348 47.73 22.34 47.722 c 22.332 47.71 22.324 47.694 22.324 47.675
 c 22.32 47.636 22.324 47.624 22.355 47.605 c 22.379 47.593 l 22.398 47.581
 22.422 47.565 22.438 47.55 c 22.438 47.55 22.477 47.511 22.469 47.433 c
 22.465 47.382 22.453 47.347 22.426 47.327 c 21.969 47.362 m 21.949 47.366
 21.938 47.386 21.941 47.405 c 22.016 47.815 l 22.02 47.835 22.035 47.851
 22.055 47.847 c 22.188 47.823 l 22.207 47.819 22.219 47.8 22.215 47.78 
c 22.215 47.765 22.195 47.749 22.176 47.753 c 22.121 47.765 l 22.098 47.769
 22.082 47.753 22.078 47.733 c 22.066 47.667 l 22.062 47.647 22.074 47.632
 22.094 47.628 c 22.133 47.62 l 22.152 47.616 22.168 47.601 22.164 47.581
 c 22.16 47.562 22.141 47.55 22.121 47.554 c 22.082 47.558 l 22.062 47.562
 22.043 47.55 22.043 47.53 c 22.027 47.46 l 22.027 47.44 22.039 47.421 22.059
 47.421 c 22.113 47.409 l 22.133 47.405 22.148 47.386 22.145 47.366 c 22.141
 47.351 22.121 47.335 22.102 47.339 c h
21.715 47.421 m 21.695 47.425 21.684 47.444 21.688 47.46 c 21.785 47.87
 l 21.789 47.89 21.809 47.901 21.828 47.894 c 21.832 47.894 l 21.852 47.89
 21.863 47.87 21.859 47.851 c 21.781 47.511 l 21.777 47.495 21.789 47.476
 21.805 47.468 c 21.863 47.456 l 21.883 47.452 21.895 47.433 21.887 47.413
 c 21.883 47.394 21.863 47.386 21.848 47.39 c h
21.309 47.538 m 21.289 47.542 21.281 47.565 21.285 47.581 c 21.414 47.98
 l 21.418 47.999 21.441 48.011 21.457 48.003 c 21.586 47.96 l 21.605 47.956
 21.613 47.937 21.609 47.921 c 21.605 47.897 21.586 47.89 21.566 47.894 
c 21.512 47.913 l 21.492 47.921 21.473 47.909 21.465 47.89 c 21.445 47.827
 l 21.441 47.808 21.449 47.788 21.469 47.78 c 21.508 47.769 l 21.523 47.765
 21.535 47.745 21.531 47.726 c 21.523 47.706 21.504 47.698 21.484 47.702
 c 21.445 47.714 l 21.43 47.722 21.406 47.71 21.402 47.694 c 21.379 47.624
 l 21.375 47.605 21.383 47.585 21.402 47.581 c 21.457 47.562 l 21.477 47.558
 21.488 47.538 21.48 47.519 c 21.477 47.499 21.457 47.491 21.438 47.495 
c h
21.148 47.593 m 21.129 47.601 21.121 47.62 21.129 47.64 c 21.273 48.03 
l 21.277 48.05 21.301 48.062 21.316 48.054 c 21.324 48.05 l 21.34 48.046
 21.352 48.022 21.344 48.007 c 21.199 47.612 l 21.195 47.593 21.172 47.585
 21.156 47.593 c h
21.074 48.073 m 21.062 48.077 l 21.047 48.085 21.023 48.077 21.02 48.062
 c 20.984 47.987 l 20.98 47.968 20.98 47.948 20.996 47.944 c 21.008 47.94
 21.031 47.94 21.051 47.944 c 21.051 47.944 21.074 47.948 21.09 47.987 c
 21.105 48.022 21.113 48.058 21.074 48.073 c 21 47.647 m 20.98 47.655 20.969
 47.679 20.973 47.698 c 20.984 47.839 l 20.984 47.858 20.977 47.878 20.965
 47.882 c 20.957 47.886 20.941 47.874 20.934 47.858 c 20.883 47.737 l 20.875
 47.718 20.855 47.71 20.836 47.718 c 20.832 47.722 l 20.812 47.73 20.805
 47.749 20.812 47.769 c 20.973 48.151 l 20.98 48.171 21 48.179 21.02 48.171
 c 21.066 48.151 l 21.086 48.144 21.113 48.128 21.125 48.116 c 21.125 48.116
 21.199 48.05 21.16 47.956 c 21.137 47.901 21.109 47.866 21.059 47.862 c
 21.043 47.667 l 21.043 47.647 21.027 47.64 21.008 47.644 c h
20.875 48.159 m 20.859 48.171 20.836 48.159 20.828 48.144 c 20.68 47.827
 l 20.672 47.812 20.648 47.804 20.633 47.812 c 20.625 47.815 l 20.609 47.823
 20.602 47.843 20.609 47.862 c 20.758 48.179 l 20.77 48.194 20.762 48.218
 20.742 48.226 c 20.73 48.23 l 20.715 48.237 20.707 48.257 20.715 48.276
 c 20.723 48.292 20.746 48.3 20.762 48.292 c 20.918 48.218 l 20.934 48.21
 20.941 48.19 20.934 48.171 c 20.926 48.151 20.906 48.147 20.887 48.155 
c h
20.539 48.233 m 20.547 48.253 20.539 48.257 20.527 48.241 c 20.441 48.132
 l 20.43 48.116 20.434 48.097 20.449 48.089 c 20.461 48.081 l 20.477 48.073
 20.496 48.081 20.504 48.101 c h
20.477 47.886 m 20.461 47.894 20.449 47.921 20.457 47.937 c 20.461 47.964
 l 20.469 47.983 20.457 48.007 20.441 48.015 c 20.402 48.034 l 20.387 48.046
 20.363 48.038 20.352 48.022 c 20.332 48.003 l 20.32 47.987 20.297 47.983
 20.277 47.991 c 20.27 47.995 l 20.254 48.007 20.25 48.022 20.262 48.038
 c 20.551 48.362 l 20.562 48.378 20.586 48.382 20.605 48.374 c 20.605 48.37
 l 20.625 48.362 20.637 48.339 20.629 48.319 c 20.527 47.897 l 20.52 47.882
 20.504 47.874 20.484 47.882 c h
20.336 48.444 m 20.328 48.448 l 20.309 48.456 20.289 48.448 20.281 48.433
 c 20.234 48.358 l 20.227 48.343 20.227 48.323 20.234 48.315 c 20.246 48.312
 20.27 48.304 20.289 48.304 c 20.289 48.304 20.316 48.304 20.34 48.347 c
 20.363 48.39 20.371 48.421 20.336 48.444 c 20.223 48.245 m 20.215 48.249
 l 20.195 48.261 20.176 48.253 20.164 48.237 c 20.105 48.132 l 20.094 48.112
 20.074 48.108 20.055 48.116 c 20.051 48.12 l 20.031 48.132 20.027 48.151
 20.039 48.171 c 20.246 48.53 l 20.258 48.55 20.277 48.554 20.297 48.546
 c 20.34 48.519 l 20.355 48.511 20.383 48.487 20.395 48.476 c 20.395 48.476
 20.457 48.397 20.406 48.308 c 20.355 48.222 20.301 48.198 20.223 48.245
 c 19.926 48.597 m 19.934 48.612 19.926 48.616 19.914 48.605 c 19.816 48.507
 l 19.801 48.491 19.805 48.472 19.82 48.464 c 19.832 48.452 l 19.848 48.444
 19.867 48.448 19.875 48.468 c h
19.828 48.257 m 19.812 48.269 19.805 48.292 19.812 48.312 c 19.824 48.335
 l 19.828 48.355 19.824 48.378 19.805 48.39 c 19.77 48.413 l 19.754 48.421
 19.73 48.421 19.715 48.405 c 19.695 48.386 l 19.684 48.37 19.656 48.37 
19.645 48.382 c 19.633 48.386 l 19.617 48.397 19.613 48.417 19.629 48.429
 c 19.945 48.726 l 19.961 48.737 19.984 48.741 20.004 48.73 c 20.004 48.726
 l 20.023 48.718 20.031 48.69 20.023 48.675 c 19.879 48.265 l 19.871 48.249
 19.852 48.241 19.836 48.253 c h
19.457 48.507 m 19.441 48.519 19.438 48.542 19.449 48.558 c 19.688 48.901
 l 19.699 48.917 19.723 48.921 19.738 48.909 c 19.742 48.905 l 19.758 48.894
 19.762 48.87 19.75 48.855 c 19.551 48.569 l 19.539 48.554 19.543 48.53 
19.559 48.522 c 19.605 48.487 l 19.625 48.476 19.629 48.456 19.617 48.44
 c 19.605 48.425 19.582 48.421 19.566 48.433 c h
19.398 49.073 m 19.391 49.081 l 19.375 49.093 19.352 49.089 19.34 49.073
 c 19.293 49.011 l 19.281 48.995 19.277 48.976 19.289 48.968 c 19.301 48.96
 19.324 48.952 19.344 48.952 c 19.344 48.952 19.367 48.952 19.391 48.983
 c 19.414 49.019 19.43 49.05 19.398 49.073 c 19.219 48.683 m 19.203 48.694
 19.195 48.718 19.203 48.737 c 19.25 48.87 l 19.258 48.886 19.254 48.909
 19.246 48.913 c 19.234 48.921 19.219 48.913 19.207 48.901 c 19.129 48.796
 l 19.113 48.78 19.094 48.776 19.078 48.788 c 19.074 48.796 l 19.059 48.808
 19.055 48.827 19.066 48.843 c 19.32 49.175 l 19.332 49.19 19.355 49.194
 19.371 49.183 c 19.414 49.151 l 19.426 49.14 19.449 49.116 19.461 49.101
 c 19.461 49.101 19.512 49.019 19.453 48.937 c 19.414 48.89 19.379 48.862
 19.328 48.87 c 19.266 48.687 l 19.262 48.671 19.242 48.663 19.227 48.675
 c h
18.969 48.913 m 18.938 48.909 18.906 48.921 18.879 48.94 c 18.848 48.964
 18.832 48.995 18.828 49.026 c 18.824 49.058 18.836 49.089 18.859 49.12 
c 19.066 49.378 l 19.078 49.394 19.102 49.397 19.117 49.386 c 19.121 49.382
 l 19.137 49.366 19.141 49.347 19.129 49.331 c 18.938 49.097 l 18.926 49.081
 18.91 49.054 18.906 49.034 c 18.906 49.034 18.902 49.015 18.922 48.995 
c 18.941 48.98 18.969 48.98 18.988 49.007 c 19.203 49.272 l 19.215 49.284
 19.234 49.288 19.25 49.276 c 19.258 49.272 l 19.273 49.261 19.273 49.237
 19.262 49.222 c 19.051 48.964 l 19.031 48.933 19 48.917 18.969 48.913 c
 18.91 49.448 m 18.914 49.46 18.906 49.476 18.895 49.487 c 18.879 49.495
 18.863 49.499 18.852 49.495 c 18.828 49.487 18.793 49.448 18.734 49.382
 c 18.68 49.312 18.652 49.272 18.648 49.245 c 18.645 49.23 18.648 49.218
 18.664 49.206 c 18.676 49.194 18.691 49.194 18.703 49.198 c 18.73 49.206
 18.762 49.241 18.82 49.312 c 18.875 49.382 18.906 49.421 18.91 49.448 c
 18.719 49.124 m 18.688 49.12 18.656 49.124 18.621 49.151 c 18.586 49.183
 18.574 49.214 18.574 49.245 c 18.574 49.296 18.602 49.339 18.676 49.429
 c 18.75 49.519 18.789 49.558 18.836 49.565 c 18.867 49.573 18.902 49.569
 18.938 49.538 c 18.973 49.511 18.984 49.48 18.984 49.444 c 18.984 49.397
 18.953 49.355 18.879 49.265 c 18.805 49.175 18.77 49.136 18.719 49.124 
c 18.652 49.675 m 18.645 49.679 l 18.629 49.69 18.605 49.69 18.594 49.675
 c 18.543 49.605 l 18.531 49.589 18.527 49.569 18.535 49.565 c 18.547 49.558
 18.57 49.55 18.59 49.546 c 18.59 49.546 18.613 49.542 18.645 49.581 c 18.672
 49.62 18.684 49.651 18.652 49.675 c 18.512 49.495 m 18.504 49.499 l 18.488
 49.511 18.469 49.511 18.453 49.495 c 18.379 49.397 l 18.367 49.386 18.348
 49.382 18.332 49.394 c 18.324 49.397 l 18.309 49.409 18.309 49.433 18.32
 49.444 c 18.578 49.776 l 18.59 49.792 18.613 49.796 18.629 49.78 c 18.668
 49.749 l 18.684 49.737 18.703 49.714 18.715 49.698 c 18.715 49.698 18.766
 49.612 18.703 49.534 c 18.641 49.452 18.582 49.44 18.512 49.495 c 18.551
 43.612 m 18.527 43.593 18.477 43.671 18.469 43.683 c 18.469 43.683 17.773
 44.593 17.594 45.769 c 17.418 46.948 17.672 47.632 17.68 47.671 c 17.68
 47.69 17.711 47.78 17.734 47.772 c 17.762 47.765 17.734 47.683 17.734 47.671
 c 17.73 47.632 17.473 46.948 17.652 45.769 c 17.828 44.593 18.523 43.683
 18.523 43.683 c 18.531 43.667 18.57 43.628 18.551 43.612 c 27.348 43.733
 m 27.348 43.733 28.043 44.644 28.219 45.819 c 28.398 46.999 28.141 47.683
 28.137 47.722 c 28.137 47.73 28.105 47.815 28.133 47.823 c 28.16 47.831
 28.188 47.737 28.191 47.722 c 28.199 47.683 28.453 46.999 28.273 45.819
 c 28.098 44.644 27.402 43.733 27.402 43.733 c 27.395 43.718 27.344 43.644
 27.32 43.659 c 27.301 43.675 27.34 43.718 27.348 43.733 c 19.699 45.073
 m 19.699 45.077 19.695 45.085 19.691 45.085 c 20.094 45.093 20.141 45.304
 20.125 45.355 c 20.105 45.409 20.043 45.44 20.051 45.48 c 20.062 45.554
 20.148 45.605 20.215 45.601 c 20.281 45.593 20.375 45.554 20.457 45.499
 c 20.543 45.44 20.918 45.374 20.984 45.405 c 21.051 45.44 21.074 45.519
 21.086 45.546 c 21.094 45.577 21.062 45.647 21.074 45.698 c 21.086 45.745
 21.215 45.933 21.234 45.964 c 21.254 45.999 21.371 45.96 21.395 45.999 
c 21.418 46.038 21.391 46.116 21.391 46.155 c 21.523 46.351 21.672 46.628
 21.797 46.827 c 21.809 46.808 21.816 46.269 21.789 45.968 c 21.754 45.522
 21.688 45.343 21.555 45.116 c 21.422 44.89 21.125 44.538 20.652 44.64 c
 20.172 44.741 19.836 44.956 19.691 45.085 c 26.672 46.284 m 26.988 46.511
 27.82 47.343 28.02 47.772 c 28.023 47.772 28.023 47.769 28.023 47.769 c
 28.043 47.702 28.051 47.64 28.074 47.554 c 28.203 47.101 28.184 46.601 
28.176 46.452 c 28.168 46.304 28.188 45.37 27.711 44.472 c 27.676 44.401
 27.543 44.167 27.48 44.077 c 27.426 43.983 27.367 43.886 27.293 43.796 
c 27.266 43.765 27.23 43.718 27.211 43.718 c 27.188 43.718 27.145 43.761
 27.125 43.78 c 27.105 43.804 27.059 43.843 27.055 43.878 c 27.055 43.897
 27.086 43.933 27.113 43.968 c 27.145 44.003 27.375 44.339 27.418 44.413
 c 27.461 44.483 27.473 44.464 27.574 44.706 c 27.977 45.358 27.984 46.886
 27.973 46.968 c 27.965 47.054 27.945 47.12 27.926 47.12 c 27.906 47.12 
27.863 47.054 27.844 47.034 c 27.824 47.019 27.047 45.964 26.926 45.835 
c 26.801 45.706 26.82 45.714 26.746 45.687 c 26.711 45.823 26.66 45.976 
26.605 46.105 c 26.594 46.132 26.574 46.171 26.574 46.19 c 26.578 46.218
 26.633 46.257 26.672 46.284 c 23.988 46.964 m 23.934 47.011 24.004 45.917
 24.215 45.425 c 24.441 44.897 24.832 44.526 25.41 44.62 c 25.781 44.679
 26.312 45.155 26.328 45.179 c 26.348 45.21 26.262 45.167 26.262 45.167 
c 25.812 45.069 25.695 45.327 25.711 45.409 c 25.715 45.46 25.781 45.483
 25.785 45.534 c 25.789 45.581 25.746 45.636 25.703 45.647 c 25.625 45.675
 25.566 45.628 25.516 45.605 c 25.359 45.538 25.297 45.534 25.168 45.499
 c 25.039 45.464 24.895 45.448 24.848 45.46 c 24.797 45.468 24.754 45.554
 24.75 45.597 c 24.746 45.644 24.758 45.69 24.762 45.718 c 24.766 45.819
 24.73 45.843 24.684 45.909 c 24.652 45.948 24.629 45.98 24.594 46.019 c
 24.543 46.034 24.469 46.03 24.434 46.054 c 24.422 46.108 24.426 46.183 
24.438 46.218 c 24.465 46.292 24.074 46.897 23.988 46.964 c 18.836 43.944
 m 18.852 43.921 18.82 43.862 18.797 43.835 c 18.777 43.812 18.719 43.745
 18.656 43.718 c 18.613 43.718 18.586 43.769 18.57 43.788 c 18.555 43.812
 18.402 44.03 18.375 44.077 c 18.348 44.124 18.184 44.421 18.145 44.491 
c 18.109 44.565 17.844 45.147 17.746 45.569 c 17.656 45.96 17.648 46.304
 17.656 46.472 c 17.723 47.421 17.758 47.378 17.828 47.737 c 17.828 47.749
 18.055 47.417 18.145 47.272 c 18.406 46.862 19.133 46.249 19.184 46.21 
c 19.234 46.171 19.277 46.163 19.25 46.105 c 19.227 46.062 19.098 45.694
 19.094 45.647 c 19.078 45.644 19.062 45.663 19.051 45.675 c 19.012 45.714
 18.98 45.761 18.934 45.804 c 18.773 45.956 18.527 46.272 18.488 46.323 
c 18.453 46.37 18.141 46.815 18.09 46.894 c 18.039 46.972 17.984 47.081 
17.949 47.077 c 17.949 47.077 17.887 47.077 17.895 46.64 c 17.902 46.206
 17.945 45.187 18.836 43.944 c 22.645 49.858 m 23.211 49.858 l 23.211 49.983
 l 23.461 50.003 24.137 50.019 24.195 50.026 c 24.211 49.991 24.418 49.55
 24.445 49.515 c 24.438 49.468 24.383 49.464 24.348 49.452 c 24.133 49.378
 23.898 49.358 23.641 49.323 c 23.559 49.312 23.469 49.304 23.379 49.292
 c 22.949 49.241 22.48 49.257 22.051 49.3 c 21.879 49.315 21.711 49.347 
21.555 49.378 c 21.488 49.394 21.422 49.405 21.363 49.429 c 21.371 49.444
 21.633 49.96 21.641 49.98 c 21.906 49.968 22.582 49.968 22.645 49.972 c
 h
24.012 53.835 m 24.211 53.831 24.406 53.792 24.598 53.769 c 24.539 53.632
 24.453 53.355 24.43 53.241 c 24.391 53.069 24.391 52.616 24.418 52.39 c
 24.43 52.276 24.488 52.151 24.504 52.03 c 24.395 51.925 24.273 51.831 24.145
 51.745 c 24.051 51.804 23.969 51.886 23.879 51.952 c 23.852 51.972 23.793
 51.995 23.789 52.022 c 23.785 52.042 23.898 52.323 23.918 52.401 c 23.941
 52.483 24.031 52.772 24.043 52.944 c 24.082 53.522 24.012 53.835 24.012
 53.835 c 24.16 52.343 m 24.27 52.343 24.359 52.257 24.359 52.147 c 24.359
 52.038 24.27 51.952 24.16 51.952 c 24.051 51.952 23.961 52.038 23.961 52.147
 c 23.961 52.257 24.051 52.343 24.16 52.343 c 24.176 52.296 m 24.254 52.296
 24.316 52.237 24.316 52.163 c 24.316 52.093 24.254 52.034 24.176 52.034
 c 24.098 52.034 24.035 52.093 24.035 52.163 c 24.035 52.237 24.098 52.296
 24.176 52.296 c 21.812 53.835 m 21.812 53.835 21.742 53.522 21.781 52.944
 c 21.793 52.772 21.883 52.483 21.906 52.401 c 21.926 52.323 22.039 52.042
 22.039 52.022 c 22.031 51.995 21.977 51.972 21.949 51.952 c 21.855 51.886
 21.773 51.804 21.68 51.745 c 21.551 51.831 21.434 51.925 21.32 52.03 c 
21.336 52.151 21.379 52.206 21.406 52.39 c 21.473 52.78 21.41 53.132 21.383
 53.265 c 21.355 53.401 21.285 53.632 21.227 53.769 c 21.418 53.792 21.613
 53.831 21.812 53.835 c 21.863 52.147 m 21.863 52.038 21.777 51.952 21.664
 51.952 c 21.555 51.952 21.465 52.038 21.465 52.147 c 21.465 52.257 21.555
 52.343 21.664 52.343 c 21.777 52.343 21.863 52.257 21.863 52.147 c 21.789
 52.163 m 21.789 52.093 21.727 52.034 21.648 52.034 c 21.574 52.034 21.512
 52.093 21.512 52.163 c 21.512 52.237 21.574 52.296 21.648 52.296 c 21.727
 52.296 21.789 52.237 21.789 52.163 c 23.02 52.425 m 23.02 52.39 22.992 
52.366 22.957 52.366 c 22.922 52.366 22.891 52.39 22.891 52.425 c 22.891
 52.456 22.922 52.483 22.957 52.483 c 22.992 52.483 23.02 52.456 23.02 52.425
 c 23.59 53.636 m 23.668 53.542 23.711 53.413 23.711 53.28 c 23.711 53.093
 23.656 52.921 23.52 52.804 c 23.379 52.683 23.184 52.593 22.957 52.593 
c 22.5 52.597 22.164 52.894 22.164 53.28 c 22.164 53.468 22.305 53.702 22.406
 53.749 c 22.457 53.772 22.574 53.862 22.641 53.8 c 22.668 53.772 22.535
 53.698 22.535 53.698 c 22.535 53.698 22.309 53.558 22.297 53.28 c 22.285
 52.98 22.543 52.753 22.945 52.749 c 23.363 52.745 23.598 52.98 23.598 53.28
 c 23.598 53.409 23.527 53.562 23.453 53.624 c 23.379 53.683 23.254 53.757
 23.297 53.776 c 23.344 53.796 23.512 53.726 23.59 53.636 c 23.211 50.413
 m 23.211 50.413 23.508 50.421 23.598 50.429 c 23.707 50.437 23.895 50.433
 24 50.433 c 24.07 50.433 24.172 50.444 24.242 50.444 c 24.277 50.444 24.301
 50.433 24.316 50.37 c 24.336 50.308 24.312 50.187 24.281 50.144 c 24.27
 50.132 24.195 50.136 24.176 50.132 c 23.883 50.12 23.512 50.124 23.211 
50.108 c 23.211 50.413 l 23.156 49.909 m 22.703 49.909 l 22.703 50.499 l
 23.156 50.499 l h
23.023 50.034 m 22.898 50.034 l 22.898 50.323 l 23.023 50.323 l h
23.078 49.976 m 22.809 49.976 l 22.809 50.425 l 23.078 50.425 l h
22.477 50.089 m 22.441 50.089 21.531 50.054 21.465 50.12 c 21.434 50.151
 21.441 50.362 21.492 50.378 c 21.516 50.39 22.277 50.386 22.562 50.397 
c 22.645 50.401 l 22.645 50.085 l 22.645 50.085 22.512 50.089 22.477 50.089
 c 24.363 53.417 m 24.371 53.397 24.344 53.358 24.336 53.355 c 24.328 53.351
 24.168 53.355 24.16 53.409 c 24.156 53.437 24.16 53.46 24.184 53.464 c 
24.211 53.468 24.34 53.468 24.363 53.417 c 24.156 53.519 m 24.188 53.511
 24.289 53.491 24.363 53.487 c 24.41 53.503 24.406 53.597 24.438 53.593 
c 24.465 53.593 24.434 53.495 24.426 53.472 c 24.418 53.444 24.336 53.128
 24.344 52.972 c 24.348 52.886 24.34 52.601 24.352 52.558 c 24.363 52.511
 24.371 52.429 24.344 52.425 c 24.32 52.437 24.309 52.534 24.305 52.55 c
 24.305 52.562 24.262 52.894 24.301 53.105 c 24.316 53.21 24.324 53.226 
24.324 53.288 c 24.297 53.315 24.211 53.319 24.168 53.308 c 24.148 53.269
 24.152 53.261 24.152 53.194 c 24.152 53.03 24.098 52.663 24.09 52.612 c
 24.082 52.562 24.031 52.409 24.004 52.401 c 23.98 52.429 24.023 52.522 
24.051 52.647 c 24.07 52.757 24.078 52.847 24.09 52.964 c 24.098 53.077 
24.109 53.194 24.113 53.3 c 24.121 53.409 24.105 53.499 24.102 53.589 c 
24.098 53.608 24.082 53.651 24.109 53.655 c 24.141 53.659 24.125 53.526 
24.156 53.519 c 21.641 53.464 m 21.664 53.46 21.668 53.437 21.668 53.409
 c 21.656 53.355 21.5 53.351 21.488 53.355 c 21.48 53.358 21.453 53.397 
21.465 53.417 c 21.484 53.468 21.613 53.468 21.641 53.464 c 21.715 53.655
 m 21.746 53.651 21.73 53.608 21.723 53.589 c 21.719 53.499 21.707 53.409
 21.711 53.3 c 21.715 53.194 21.727 53.077 21.738 52.964 c 21.746 52.847
 21.754 52.757 21.777 52.647 c 21.801 52.522 21.848 52.429 21.824 52.401
 c 21.793 52.409 21.746 52.562 21.738 52.612 c 21.73 52.663 21.672 53.03
 21.672 53.194 c 21.672 53.261 21.676 53.269 21.656 53.308 c 21.613 53.319
 21.531 53.315 21.5 53.288 c 21.504 53.226 21.508 53.21 21.527 53.105 c 
21.566 52.894 21.523 52.562 21.52 52.55 c 21.52 52.534 21.504 52.437 21.48
 52.425 c 21.453 52.429 21.465 52.511 21.473 52.558 c 21.484 52.601 21.477
 52.886 21.48 52.972 c 21.488 53.128 21.406 53.444 21.398 53.472 c 21.395
 53.495 21.359 53.593 21.387 53.593 c 21.418 53.597 21.418 53.503 21.461
 53.487 c 21.539 53.491 21.641 53.511 21.668 53.519 c 21.699 53.526 21.684
 53.659 21.715 53.655 c 25.73 52.612 m 25.734 52.569 25.781 52.327 25.738
 52.034 c 25.723 51.987 25.723 51.987 25.711 51.972 c 25.668 51.972 25.699
 52.015 25.699 52.054 c 25.699 52.093 25.703 52.37 25.695 52.421 c 25.688
 52.472 25.621 52.874 25.617 52.901 c 25.613 52.925 25.562 53.144 25.594
 53.183 c 25.637 53.14 25.648 53.034 25.664 52.983 c 25.68 52.929 25.715
 52.714 25.73 52.612 c 20.148 52.983 m 20.16 53.034 20.172 53.14 20.219 
53.183 c 20.25 53.144 20.195 52.925 20.195 52.901 c 20.191 52.874 20.121
 52.472 20.113 52.421 c 20.109 52.37 20.109 52.093 20.109 52.054 c 20.109
 52.015 20.145 51.972 20.098 51.972 c 20.086 51.987 20.09 51.987 20.074 
52.034 c 20.027 52.327 20.074 52.569 20.082 52.612 c 20.094 52.714 20.133
 52.929 20.148 52.983 c 18.133 46.554 m 18.145 46.558 18.156 46.534 18.16
 46.53 c 18.219 46.452 18.277 46.362 18.34 46.284 c 18.484 46.112 18.637
 45.937 18.785 45.761 c 18.938 45.589 19.098 45.433 19.273 45.276 c 19.402
 45.163 19.527 45.054 19.672 44.948 c 19.789 44.862 19.91 44.792 20.051 
44.718 c 20.273 44.601 20.613 44.476 20.945 44.519 c 21.387 44.569 21.609
 44.917 21.758 45.276 c 21.781 45.327 21.797 45.39 21.816 45.444 c 21.883
 45.675 21.906 45.933 21.906 46.261 c 21.906 46.417 21.898 46.581 21.898
 46.757 c 21.898 46.815 21.887 46.909 21.926 46.921 c 21.949 46.925 21.996
 46.909 22.031 46.905 c 22.207 46.882 22.359 46.851 22.551 46.843 c 22.602
 46.843 22.723 46.847 22.754 46.823 c 22.789 46.792 22.777 46.675 22.777
 46.608 c 22.781 46.519 22.789 46.452 22.793 46.386 c 22.797 46.358 22.801
 46.308 22.801 46.284 c 22.801 46.108 22.82 44.331 22.883 43.355 c 22.883
 43.327 22.891 43.269 22.824 43.257 c 22.809 43.253 21.984 43.284 21.668
 43.339 c 21.25 43.413 20.578 43.671 20.207 43.894 c 19.793 44.144 19.41
 44.519 19.156 44.808 c 18.84 45.163 18.219 46.28 18.18 46.362 c 18.148 
46.425 18.129 46.46 18.125 46.534 c 18.125 46.554 18.129 46.554 18.133 46.554
 c 24.758 53.823 m 24.918 53.733 25.102 53.655 25.293 53.589 c 25.379 53.554
 25.441 53.569 25.504 53.519 c 25.594 53.663 25.703 53.784 25.797 53.929
 c 25.582 54.108 25.391 54.249 25.141 54.397 c 25.004 54.206 24.891 54.019
 24.758 53.823 c 25.145 54.577 m 25.152 54.48 25.242 54.456 25.309 54.409
 c 25.383 54.358 25.457 54.308 25.527 54.257 c 25.664 54.147 25.766 54.058
 25.914 53.96 c 25.945 53.972 25.977 53.999 25.965 54.05 c 25.961 54.069
 25.93 54.085 25.902 54.108 c 25.688 54.288 25.438 54.452 25.211 54.601 
c 25.176 54.608 25.156 54.593 25.145 54.577 c 25.625 55.226 m 25.625 55.226
 25.621 55.226 25.617 55.226 c 25.5 55.054 25.375 54.886 25.309 54.655 c
 25.355 54.601 25.422 54.565 25.48 54.522 c 25.656 54.397 25.781 54.3 25.965
 54.175 c 26.172 54.253 26.305 54.433 26.395 54.64 c 26.375 54.679 26.383
 54.663 26.352 54.69 c 26.188 54.815 26.016 54.948 25.848 55.077 c 25.777
 55.136 25.707 55.187 25.625 55.226 c 26.406 54.792 m 26.43 54.796 26.441
 54.812 26.453 54.831 c 26.43 54.901 26.406 54.87 26.355 54.921 c 26.184
 55.054 26.008 55.183 25.836 55.315 c 25.82 55.331 25.785 55.296 25.785 
55.276 c 25.785 55.249 25.836 55.226 25.867 55.202 c 26.062 55.054 26.203
 54.921 26.406 54.792 c 20.73 54.394 m 20.48 54.241 20.293 54.101 20.078
 53.921 c 20.172 53.78 20.281 53.659 20.371 53.511 c 20.43 53.565 20.492
 53.55 20.582 53.581 c 20.77 53.647 20.965 53.71 21.125 53.8 c 20.992 53.995
 20.871 54.202 20.73 54.394 c 20.672 54.601 m 20.445 54.452 20.191 54.288
 19.977 54.108 c 19.949 54.085 19.918 54.069 19.914 54.05 c 19.906 53.999
 19.934 53.972 19.965 53.96 c 20.113 54.058 20.215 54.147 20.352 54.257 
c 20.422 54.308 20.496 54.358 20.57 54.409 c 20.641 54.456 20.727 54.48 
20.734 54.577 c 20.723 54.593 20.707 54.608 20.672 54.601 c 20.047 55.093
 m 19.879 54.96 19.703 54.831 19.543 54.702 c 19.508 54.679 19.52 54.69 
19.5 54.651 c 19.586 54.448 19.723 54.265 19.93 54.187 c 20.109 54.312 20.238
 54.409 20.41 54.534 c 20.469 54.577 20.539 54.612 20.586 54.671 c 20.52
 54.901 20.395 55.065 20.277 55.241 c 20.273 55.237 20.27 55.237 20.27 55.237
 c 20.188 55.198 20.117 55.147 20.047 55.093 c 20.016 55.202 m 20.043 55.226
 20.098 55.249 20.094 55.276 c 20.094 55.296 20.062 55.331 20.043 55.315
 c 19.875 55.183 19.695 55.054 19.523 54.921 c 19.473 54.87 19.449 54.901
 19.426 54.831 c 19.438 54.812 19.453 54.796 19.473 54.792 c 19.676 54.921
 19.82 55.054 20.016 55.202 c 24.355 50.503 m 24.438 50.495 24.461 50.437
 24.48 50.37 c 24.52 50.355 24.562 50.335 24.605 50.335 c 24.848 50.347 
25.32 50.874 25.383 50.952 c 25.438 51.026 25.535 51.155 25.516 51.194 c
 25.508 51.194 25.508 51.19 25.504 51.19 c 25.426 51.124 25.066 50.847 25.027
 50.815 c 24.984 50.784 24.695 50.612 24.402 50.589 c 24.387 50.558 24.367
 50.534 24.355 50.503 c 24.699 51.187 m 24.641 51.038 24.562 50.882 24.496
 50.749 c 24.52 50.702 24.582 50.722 24.633 50.737 c 24.945 50.831 25.5 
51.315 25.566 51.452 c 25.559 51.456 25.559 51.46 25.551 51.46 c 25.422 
51.417 24.719 51.187 24.699 51.187 c 24.941 51.73 m 24.91 51.647 24.781 
51.358 24.762 51.312 c 25.105 51.394 25.414 51.472 25.699 51.733 c 25.457
 51.741 25.191 51.733 24.941 51.73 c 21.402 50.565 m 21.109 50.589 20.82
 50.761 20.781 50.792 c 20.742 50.823 20.383 51.101 20.305 51.167 c 20.301
 51.167 20.301 51.171 20.293 51.171 c 20.273 51.136 20.367 51.003 20.426
 50.929 c 20.484 50.851 20.957 50.319 21.203 50.312 c 21.246 50.312 21.289
 50.331 21.328 50.347 c 21.344 50.413 21.371 50.476 21.453 50.48 c 21.441
 50.511 21.418 50.534 21.402 50.565 c 25.137 50.487 m 25.109 50.464 24.98
 50.39 24.902 50.343 c 25.012 50.233 25.73 50.397 25.941 50.558 c 26.152
 50.718 26.293 50.905 26.367 51.022 c 26.387 51.054 26.395 51.069 26.418
 51.116 c 26.445 51.163 26.469 51.183 26.449 51.218 c 26.398 51.226 26.258
 51.054 25.789 50.878 c 25.676 50.835 25.637 50.827 25.59 50.812 c 25.543
 50.796 25.441 50.78 25.387 50.749 c 25.34 50.726 25.301 50.675 25.262 50.62
 c 25.219 50.562 25.164 50.515 25.137 50.487 c 26.781 51.87 m 26.738 51.874
 26.543 51.776 26.461 51.745 c 26.348 51.698 26.23 51.651 26.105 51.608 
c 26.047 51.589 25.992 51.558 25.934 51.542 c 25.859 51.522 25.742 51.507
 25.715 51.48 c 25.684 51.448 25.641 51.405 25.637 51.343 c 25.637 51.315
 25.66 51.312 25.676 51.304 c 25.656 51.12 25.543 51.034 25.48 50.901 c 
25.578 50.886 25.656 50.944 25.719 50.964 c 25.781 50.983 25.965 51.062 
26.156 51.175 c 26.441 51.343 26.594 51.526 26.695 51.675 c 26.727 51.726
 26.793 51.8 26.797 51.858 c 26.789 51.862 26.789 51.87 26.781 51.87 c 26.594
 51.202 m 26.559 51.155 26.379 50.827 26.309 50.73 c 26.301 50.714 26.277
 50.698 26.281 50.679 c 26.379 50.671 26.441 50.694 26.574 50.737 c 26.852
 50.815 27.426 51.245 27.566 51.413 c 27.707 51.581 27.836 51.757 27.918
 51.882 c 27.883 51.897 27.805 51.866 27.762 51.843 c 27.656 51.78 27.359
 51.593 27.238 51.515 c 27.117 51.44 26.82 51.28 26.594 51.202 c 25.82 51.874
 m 25.891 51.882 25.914 51.948 25.953 52.003 c 25.973 52.026 25.992 52.05
 26.012 52.077 c 26.039 52.132 26.102 52.198 26.109 52.253 c 26.109 52.257
 26.105 52.257 26.102 52.257 c 26.051 52.218 25.887 52.081 25.863 52.022
 c 25.844 51.976 25.816 51.933 25.82 51.874 c 28.336 52.831 m 28.324 52.835
 28.262 52.839 28.203 52.784 c 28.164 52.749 27.824 52.386 27.23 52.05 c
 27.078 51.964 27.059 51.948 26.98 51.894 c 26.973 51.878 26.961 51.858 
26.941 51.851 c 26.941 51.831 26.773 51.581 26.723 51.515 c 26.691 51.472
 26.656 51.44 26.645 51.401 c 26.676 51.397 26.691 51.386 26.758 51.397 
c 26.887 51.429 27.668 51.89 27.797 52.026 c 27.93 52.163 28.008 52.253 
28.09 52.397 c 28.176 52.538 28.309 52.769 28.332 52.819 c 28.336 52.831
 28.336 52.831 28.336 52.831 c 27.301 52.948 m 27.285 52.944 26.426 52.46
 26.398 52.425 c 26.387 52.405 26.219 52.167 26.102 51.983 c 25.973 51.78
 25.953 51.757 25.879 51.644 c 25.984 51.675 26.094 51.69 26.191 51.73 c
 26.332 51.784 26.754 52.015 26.809 52.081 c 26.828 52.105 27.031 52.437
 27.098 52.538 c 27.16 52.644 27.32 52.901 27.312 52.94 c 27.312 52.944 
27.312 52.952 27.301 52.948 c 25.922 52.433 m 25.934 52.39 25.93 52.343 
25.922 52.292 c 26.004 52.284 26.027 52.312 26.109 52.374 c 26.191 52.437
 26.277 52.519 26.32 52.593 c 26.363 52.663 26.461 52.855 26.527 53.003 
c 26.547 53.05 26.586 53.12 26.535 53.128 c 26.508 53.132 26.484 53.105 
26.461 53.085 c 26.434 53.069 26.281 52.89 26.266 52.866 c 26.246 52.843
 26.012 52.569 25.922 52.433 c 26.469 52.608 m 26.48 52.605 26.496 52.616
 26.504 52.62 c 26.707 52.73 27.168 53.14 27.355 53.483 c 27.422 53.608 
27.539 54.003 27.551 54.05 c 27.551 54.054 27.547 54.054 27.547 54.058 c
 27.543 54.062 27.539 54.062 27.539 54.058 c 27.332 53.909 27.148 53.788
 26.938 53.597 c 26.875 53.511 26.656 53.069 26.621 52.972 c 26.582 52.87
 26.523 52.726 26.469 52.608 c 26.953 52.038 m 27.004 52.046 27.254 52.23
 27.438 52.339 c 28.145 52.749 28.395 53.421 28.688 54.108 c 28.688 54.116
 28.684 54.12 28.68 54.12 c 28.621 54.116 28.582 54.085 28.562 54.054 c 
28.543 54.022 27.922 53.366 27.789 53.253 c 27.699 53.179 27.625 53.12 27.535
 53.065 c 27.48 52.944 27.082 52.253 26.953 52.038 c 28.902 54.905 m 28.906
 54.909 28.902 54.909 28.898 54.909 c 28.895 54.909 l 28.73 54.815 27.883
 54.308 27.715 54.183 c 27.633 53.944 27.547 53.714 27.465 53.476 c 27.395
 53.343 27.32 53.21 27.258 53.069 c 27.488 53.128 27.824 53.499 28.012 53.675
 c 28.32 53.972 28.508 54.194 28.902 54.905 c 25.891 52.667 m 25.898 52.647
 25.91 52.683 25.922 52.69 c 25.926 52.702 26.801 53.698 27.277 54.038 c
 27.754 54.382 28.113 54.597 28.23 54.663 c 28.344 54.733 28.566 54.847 
28.656 54.913 c 28.656 54.925 l 28.652 54.925 28.652 54.929 28.648 54.929
 c 28.449 54.866 28.273 54.765 28.09 54.671 c 27.973 54.612 27.848 54.562
 27.723 54.503 c 27.602 54.448 27.477 54.397 27.363 54.327 c 27.141 54.194
 26.914 54.069 26.688 53.933 c 26.469 53.8 26.27 53.644 26.059 53.491 c 
26.008 53.456 25.961 53.421 25.914 53.37 c 25.879 53.335 25.797 53.261 25.793
 53.226 c 25.785 53.19 25.809 53.124 25.816 53.085 c 25.84 52.94 25.863 
52.796 25.891 52.667 c 20.414 50.733 m 20.363 50.769 20.258 50.776 20.211
 50.792 c 20.164 50.808 20.125 50.819 20.012 50.858 c 19.543 51.038 19.402
 51.21 19.352 51.202 c 19.336 51.163 19.355 51.147 19.383 51.101 c 19.406
 51.054 19.418 51.034 19.434 51.007 c 19.512 50.89 19.648 50.702 19.859 
50.542 c 20.07 50.382 20.789 50.214 20.898 50.323 c 20.746 50.413 20.508
 50.663 20.414 50.733 c 20.258 51.437 m 20.25 51.437 20.246 51.433 20.242
 51.429 c 20.305 51.292 20.859 50.808 21.176 50.714 c 21.223 50.698 21.289
 50.679 21.309 50.726 c 21.242 50.858 21.168 51.015 21.105 51.163 c 21.09
 51.163 20.387 51.394 20.258 51.437 c 20.105 51.71 m 20.395 51.448 20.699
 51.37 21.047 51.288 c 21.027 51.339 20.898 51.62 20.867 51.71 c 20.613 
51.71 20.352 51.718 20.105 51.71 c 19.004 51.843 m 19.008 51.78 19.074 51.706
 19.105 51.659 c 19.211 51.511 19.359 51.323 19.645 51.159 c 19.836 51.042
 20.023 50.968 20.082 50.944 c 20.148 50.929 20.223 50.87 20.32 50.882 c
 20.258 51.019 20.145 51.105 20.125 51.284 c 20.145 51.296 20.168 51.3 20.168
 51.323 c 20.16 51.39 20.117 51.429 20.086 51.46 c 20.059 51.491 19.941 
51.503 19.867 51.522 c 19.809 51.538 19.754 51.569 19.695 51.593 c 19.57
 51.636 19.453 51.683 19.34 51.726 c 19.262 51.757 19.062 51.855 19.02 51.855
 c 19.012 51.855 19.012 51.843 19.004 51.843 c 18.562 51.499 m 18.441 51.573
 18.145 51.761 18.039 51.823 c 18 51.851 17.922 51.882 17.883 51.866 c 17.965
 51.741 18.094 51.565 18.234 51.397 c 18.379 51.23 18.949 50.8 19.227 50.718
 c 19.359 50.679 19.422 50.651 19.523 50.663 c 19.523 50.683 19.504 50.694
 19.492 50.71 c 19.422 50.808 19.242 51.136 19.207 51.187 c 18.98 51.265
 18.684 51.421 18.562 51.499 c 20.441 52.105 m 20.434 52.105 20.43 52.101
 20.426 52.097 c 20.395 52.065 20.383 52.019 20.363 51.976 c 20.348 51.933
 20.312 51.894 20.312 51.851 c 20.336 51.827 20.387 51.831 20.422 51.831
 c 20.488 51.831 20.562 51.831 20.637 51.831 c 20.688 51.901 20.73 51.976
 20.742 52.085 c 20.668 52.132 20.531 52.089 20.441 52.105 c 25.082 52.093
 m 25.086 51.991 25.137 51.937 25.168 51.862 c 25.242 51.862 25.324 51.862
 25.395 51.862 c 25.43 51.862 25.48 51.855 25.5 51.886 c 25.496 51.925 25.469
 51.964 25.453 52.003 c 25.438 52.046 25.422 52.089 25.391 52.112 c 25.289
 52.097 25.156 52.136 25.082 52.093 c 19.938 52.003 m 19.914 52.065 19.75
 52.198 19.699 52.241 c 19.695 52.241 19.695 52.237 19.691 52.237 c 19.699
 52.183 19.762 52.112 19.793 52.062 c 19.809 52.03 19.828 52.011 19.848 
51.983 c 19.887 51.933 19.91 51.862 19.977 51.858 c 19.984 51.913 19.957
 51.96 19.938 52.003 c 20.5 52.444 m 20.496 52.44 20.477 52.409 20.477 52.405
 c 20.465 52.308 20.461 52.272 20.434 52.19 c 20.539 52.175 20.656 52.19
 20.766 52.179 c 20.84 52.218 20.852 52.339 20.855 52.433 c 20.75 52.456
 20.605 52.421 20.5 52.444 c 25.383 52.347 m 25.375 52.374 25.352 52.468
 25.305 52.448 c 25.215 52.417 25.078 52.472 24.969 52.44 c 24.977 52.347
 24.984 52.226 25.059 52.187 c 25.168 52.198 25.297 52.19 25.402 52.202 
c 25.406 52.249 25.395 52.292 25.383 52.347 c 20.523 52.776 m 20.52 52.776
 20.516 52.769 20.512 52.769 c 20.512 52.683 20.492 52.597 20.492 52.526
 c 20.516 52.503 20.547 52.515 20.578 52.519 c 20.668 52.522 20.77 52.519
 20.855 52.522 c 20.922 52.554 20.914 52.71 20.887 52.78 c 20.777 52.796
 20.648 52.776 20.531 52.788 c 20.527 52.784 20.523 52.78 20.523 52.776 
c 24.938 52.788 m 24.91 52.718 24.902 52.562 24.969 52.53 c 25.062 52.526
 25.164 52.53 25.25 52.526 c 25.281 52.522 25.309 52.511 25.332 52.534 c
 25.336 52.569 25.324 52.62 25.32 52.667 c 25.316 52.714 25.324 52.769 25.297
 52.796 c 25.18 52.784 25.051 52.8 24.938 52.788 c 17.469 52.804 m 17.492
 52.753 17.625 52.522 17.711 52.378 c 17.793 52.237 17.875 52.144 18.004
 52.007 c 18.133 51.87 18.914 51.413 19.047 51.382 c 19.109 51.366 19.125
 51.378 19.156 51.386 c 19.145 51.421 19.109 51.456 19.078 51.495 c 19.027
 51.562 18.859 51.812 18.855 51.831 c 18.84 51.843 18.832 51.858 18.82 51.878
 c 18.746 51.929 18.723 51.944 18.57 52.03 c 17.977 52.366 17.637 52.733
 17.598 52.769 c 17.539 52.823 17.477 52.815 17.465 52.815 c 17.465 52.815
 17.465 52.812 17.469 52.804 c 18.484 52.921 m 18.48 52.882 18.641 52.624
 18.703 52.522 c 18.77 52.417 18.973 52.089 18.992 52.065 c 19.047 51.995
 19.469 51.765 19.609 51.71 c 19.707 51.675 19.816 51.659 19.922 51.624 
c 19.848 51.741 19.832 51.761 19.699 51.964 c 19.582 52.151 19.414 52.39
 19.402 52.405 c 19.375 52.44 18.516 52.925 18.5 52.929 c 18.488 52.933 
18.488 52.925 18.484 52.921 c 19.535 52.847 m 19.52 52.87 19.367 53.05 19.34
 53.069 c 19.316 53.089 19.293 53.112 19.266 53.108 c 19.215 53.101 19.254
 53.03 19.273 52.987 c 19.34 52.835 19.438 52.647 19.48 52.573 c 19.523 
52.503 19.605 52.421 19.691 52.355 c 19.773 52.292 19.801 52.265 19.879 
52.272 c 19.871 52.323 19.867 52.374 19.883 52.417 c 19.793 52.55 19.555
 52.823 19.535 52.847 c 20.512 53.089 m 20.496 53.03 20.508 52.94 20.512
 52.878 c 20.543 52.843 20.598 52.866 20.648 52.866 c 20.727 52.87 20.824
 52.855 20.898 52.878 c 20.906 52.944 20.91 53.038 20.906 53.108 c 20.781
 53.112 20.633 53.105 20.512 53.089 c 24.918 53.108 m 24.922 53.034 24.914
 52.948 24.93 52.886 c 24.996 52.866 25.105 52.87 25.184 52.874 c 25.219
 52.862 25.285 52.862 25.309 52.882 c 25.32 52.94 25.328 53.034 25.312 53.097
 c 25.195 53.112 25.055 53.112 24.93 53.12 c 24.922 53.12 24.918 53.116 
24.918 53.108 c 20.238 53.358 m 20.207 53.339 20.172 53.265 20.152 53.214
 c 20.129 53.155 20.117 53.089 20.102 53.034 c 20.086 52.98 20.07 52.909
 20.062 52.847 c 20.039 52.706 20.02 52.593 20.012 52.44 c 20.008 52.362
 19.996 52.288 20 52.226 c 20.004 52.171 20.016 52.062 20.031 52.007 c 20.051
 51.937 20.094 51.819 20.141 51.808 c 20.219 51.796 20.25 51.894 20.277 
51.972 c 20.352 52.159 20.402 52.487 20.418 52.62 c 20.434 52.749 20.391
 53.331 20.391 53.351 c 20.391 53.366 20.398 53.397 20.379 53.394 c 20.355
 53.386 20.254 53.366 20.238 53.358 c 25.43 53.39 m 25.406 53.269 25.387
 52.808 25.406 52.624 c 25.43 52.437 25.523 52.054 25.543 51.991 c 25.562
 51.929 25.574 51.858 25.641 51.839 c 25.652 51.843 25.66 51.835 25.676 
51.839 c 25.723 51.851 25.758 51.98 25.777 52.042 c 25.777 52.042 25.781
 52.046 25.781 52.046 c 25.816 52.19 25.805 52.319 25.797 52.472 c 25.785
 52.745 25.719 53.003 25.68 53.206 c 25.645 53.261 25.637 53.327 25.59 53.362
 c 25.547 53.386 25.496 53.386 25.438 53.401 c 25.434 53.401 25.43 53.397
 25.43 53.39 c 20.801 53.499 m 20.707 53.476 20.602 53.456 20.516 53.425
 c 20.449 53.425 20.484 53.222 20.504 53.167 c 20.633 53.159 20.777 53.171
 20.906 53.179 c 20.93 53.269 20.914 53.409 20.895 53.499 c 20.875 53.511
 20.812 53.503 20.801 53.499 c 25.305 53.433 m 25.234 53.468 25.117 53.472
 25.031 53.503 c 25.016 53.511 25.004 53.522 24.984 53.526 c 24.969 53.53
 24.941 53.511 24.93 53.507 c 24.91 53.417 24.895 53.276 24.922 53.187 c
 25.047 53.179 25.195 53.171 25.32 53.175 c 25.375 53.226 25.379 53.327 
25.406 53.401 c 25.387 53.425 25.348 53.429 25.305 53.433 c 20.953 52.374
 m 20.926 52.218 20.898 52.065 20.852 51.952 c 20.844 51.933 20.785 51.843
 20.852 51.839 c 20.906 51.835 20.93 51.952 20.941 51.991 c 20.961 52.054
 20.98 52.116 20.992 52.187 c 21.051 52.37 21.105 52.64 21.117 52.921 c 
21.125 53.042 21.129 53.175 21.117 53.296 c 21.113 53.335 21.102 53.386 
21.094 53.444 c 21.082 53.499 21.082 53.562 21.035 53.565 c 21.016 53.569
 20.977 53.554 20.969 53.534 c 21.004 53.175 21.012 52.733 20.953 52.374
 c 24.781 53.573 m 24.742 53.569 24.738 53.495 24.73 53.44 c 24.68 53.14
 24.703 52.823 24.758 52.491 c 24.781 52.366 24.812 52.272 24.844 52.147
 c 24.852 52.097 24.871 52.038 24.891 51.98 c 24.914 51.913 24.938 51.808
 25.004 51.866 c 25.012 51.901 24.984 51.929 24.973 51.964 c 24.926 52.085
 24.895 52.233 24.871 52.382 c 24.809 52.765 24.82 53.171 24.855 53.546 
c 24.84 53.562 24.809 53.581 24.781 53.573 c 23.211 50.491 m 23.531 50.483
 23.832 50.511 24.145 50.511 c 24.238 50.585 24.293 50.698 24.355 50.804
 c 24.48 51.019 24.562 51.245 24.676 51.48 c 24.703 51.53 24.734 51.589 
24.758 51.644 c 24.793 51.726 24.824 51.796 24.824 51.89 c 24.77 52.03 24.727
 52.187 24.688 52.355 c 24.652 52.522 24.613 52.698 24.609 52.882 c 24.605
 53.042 24.605 53.222 24.621 53.378 c 24.629 53.468 24.664 53.55 24.656 
53.628 c 24.625 53.628 24.613 53.585 24.605 53.562 c 24.574 53.468 24.547
 53.378 24.523 53.28 c 24.492 53.151 24.465 53.011 24.465 52.862 c 24.461
 52.683 24.48 52.503 24.504 52.339 c 24.539 52.23 24.574 52.124 24.609 52.015
 c 24.547 51.944 24.457 51.901 24.387 51.835 c 24.348 51.812 24.309 51.78
 24.273 51.749 c 24.223 51.733 24.215 51.675 24.152 51.671 c 24.102 51.679
 24.066 51.718 24.031 51.745 c 23.996 51.772 23.961 51.804 23.918 51.827
 c 23.887 51.858 23.852 51.882 23.809 51.913 c 23.781 51.937 23.711 51.968
 23.703 51.999 c 23.688 52.046 23.715 52.108 23.73 52.151 c 23.75 52.198
 23.777 52.233 23.797 52.272 c 23.855 52.499 23.906 52.589 23.965 52.839
 c 24.008 53.022 24 53.144 24 53.323 c 23.996 53.397 23.98 53.636 23.941
 53.683 c 23.852 53.698 23.762 53.71 23.676 53.73 c 23.672 53.726 23.668
 53.722 23.664 53.718 c 23.668 53.694 23.707 53.671 23.727 53.636 c 23.75
 53.601 23.777 53.565 23.805 53.472 c 23.828 53.374 23.844 53.05 23.715 
52.855 c 23.621 52.69 23.371 52.53 23.066 52.499 c 23.078 52.46 23.078 52.429
 23.062 52.386 c 23.051 52.347 23.012 52.327 23.004 52.3 c 22.988 52.245
 23.004 52.151 23 52.085 c 22.984 51.651 23.004 51.21 22.988 50.792 c 22.988
 50.726 22.996 50.636 22.988 50.558 c 23.211 50.558 l h
22.922 50.589 m 22.934 51.151 22.91 51.733 22.918 52.308 c 22.863 52.343
 22.809 52.397 22.848 52.472 c 22.852 52.483 22.871 52.499 22.863 52.511
 c 22.746 52.534 22.625 52.558 22.52 52.601 c 22.426 52.64 22.309 52.714
 22.25 52.784 c 22.18 52.87 22.102 53.019 22.09 53.159 c 22.07 53.37 22.148
 53.593 22.23 53.71 c 22.242 53.726 22.27 53.741 22.258 53.761 c 22.125 
53.745 22 53.726 21.879 53.694 c 21.879 53.663 21.863 53.647 21.855 53.62
 c 21.848 53.565 21.859 53.495 21.855 53.429 c 21.855 53.362 21.848 53.296
 21.852 53.241 c 21.871 52.999 21.902 52.776 21.953 52.573 c 21.977 52.464
 22.004 52.362 22.031 52.265 c 22.074 52.183 22.121 52.108 22.133 51.995
 c 22.105 51.96 22.055 51.944 22.023 51.909 c 21.98 51.882 21.945 51.851
 21.906 51.823 c 21.867 51.796 21.832 51.765 21.793 51.737 c 21.758 51.71
 21.723 51.667 21.668 51.663 c 21.613 51.675 21.594 51.722 21.551 51.745
 c 21.465 51.808 21.379 51.874 21.293 51.94 c 21.273 51.956 21.219 51.987
 21.215 52.011 c 21.215 52.03 21.234 52.065 21.242 52.089 c 21.273 52.171
 21.293 52.257 21.32 52.331 c 21.344 52.499 21.363 52.679 21.363 52.858 
c 21.359 53.116 21.285 53.355 21.219 53.554 c 21.211 53.577 21.203 53.62
 21.168 53.62 c 21.164 53.538 21.195 53.456 21.203 53.366 c 21.238 53.007
 21.203 52.644 21.137 52.351 c 21.121 52.269 21.102 52.19 21.078 52.108 
c 21.055 52.034 21.012 51.948 21.004 51.882 c 20.988 51.78 21.039 51.714
 21.07 51.636 c 21.145 51.444 21.207 51.28 21.293 51.105 c 21.371 50.944
 21.453 50.765 21.555 50.612 c 21.578 50.573 21.637 50.495 21.676 50.483
 c 21.742 50.468 21.844 50.468 21.926 50.468 c 22.168 50.468 22.41 50.468
 22.645 50.48 c 22.645 50.558 l 22.918 50.558 l h
19.18 52.952 m 19.145 53.054 18.926 53.491 18.863 53.577 c 18.652 53.772
 18.469 53.89 18.262 54.038 c 18.262 54.046 18.258 54.042 18.254 54.038 
c 18.254 54.034 18.25 54.034 18.25 54.03 c 18.262 53.987 18.379 53.589 18.445
 53.468 c 18.633 53.12 19.094 52.71 19.297 52.605 c 19.305 52.597 19.32 
52.589 19.336 52.593 c 19.277 52.71 19.219 52.851 19.18 52.952 c 18.266 
53.046 m 18.176 53.105 18.102 53.159 18.016 53.233 c 17.879 53.347 17.258
 54.007 17.238 54.034 c 17.219 54.065 17.18 54.101 17.121 54.105 c 17.117
 54.101 17.113 54.101 17.113 54.093 c 17.406 53.401 17.656 52.73 18.359 
52.319 c 18.547 52.21 18.797 52.026 18.848 52.022 c 18.719 52.233 18.32 
52.929 18.266 53.046 c 23.141 54.034 m 23.137 54.237 23.133 54.437 23.125
 54.636 c 23.125 54.667 23.137 54.714 23.102 54.733 c 23.059 54.737 23.055
 54.71 23.035 54.694 c 22.953 54.636 22.836 54.605 22.773 54.538 c 22.777
 54.37 22.781 54.198 22.785 54.022 c 22.785 53.937 l 22.789 53.573 22.781
 53.198 22.805 52.851 c 22.891 52.823 23.062 52.815 23.148 52.851 c 23.176
 52.917 23.156 52.991 23.156 53.065 c 23.156 53.14 23.156 53.218 23.152 
53.296 c 23.148 53.511 23.145 53.726 23.141 53.944 c h
22.938 54.839 m 22.852 54.784 22.773 54.726 22.688 54.675 c 22.324 54.48
 21.805 54.366 21.246 54.401 c 21.211 54.405 21.156 54.429 21.145 54.37 
c 21.309 54.323 21.496 54.343 21.668 54.358 c 21.754 54.366 21.844 54.366
 21.926 54.382 c 22.004 54.401 22.082 54.421 22.156 54.437 c 22.469 54.507
 22.73 54.632 22.934 54.8 c 22.945 54.804 22.969 54.835 22.941 54.839 c 
h
23.41 54.788 m 23.438 54.741 23.465 54.698 23.484 54.667 c 23.543 54.597
 23.594 54.519 23.668 54.464 c 23.797 54.327 23.957 54.23 24.137 54.147 
c 24.168 54.144 24.207 54.132 24.242 54.124 c 24.277 54.116 24.324 54.101
 24.344 54.132 c 24.328 54.163 24.293 54.163 24.266 54.175 c 24.18 54.202
 24.078 54.233 24.004 54.276 c 23.973 54.296 23.941 54.323 23.914 54.347
 c 23.684 54.503 23.527 54.722 23.367 54.94 c 23.359 54.94 l 23.301 54.905
 23.379 54.835 23.41 54.788 c 17.793 53.655 m 17.977 53.48 18.312 53.108
 18.543 53.054 c 18.477 53.194 18.406 53.323 18.336 53.46 c 18.254 53.694
 18.168 53.929 18.086 54.163 c 17.918 54.292 17.07 54.8 16.906 54.89 c 16.902
 54.89 l 16.898 54.89 16.895 54.89 16.898 54.886 c 17.293 54.179 17.48 53.952
 17.793 53.655 c 19.984 53.065 m 19.992 53.108 20.016 53.175 20.008 53.206
 c 20.004 53.241 19.926 53.315 19.887 53.355 c 19.844 53.405 19.793 53.44
 19.742 53.476 c 19.531 53.628 19.332 53.784 19.113 53.917 c 18.887 54.054
 18.656 54.175 18.438 54.312 c 18.324 54.378 18.199 54.433 18.078 54.487
 c 17.953 54.542 17.832 54.597 17.711 54.655 c 17.527 54.745 17.352 54.851
 17.152 54.909 c 17.148 54.909 17.148 54.905 17.145 54.905 c 17.145 54.894
 l 17.234 54.831 17.457 54.714 17.57 54.647 c 17.688 54.577 18.047 54.362
 18.523 54.022 c 19.004 53.679 19.875 52.687 19.883 52.671 c 19.891 52.667
 19.902 52.628 19.91 52.647 c 19.934 52.776 19.965 52.925 19.984 53.065 
c 22.793 55.015 m 22.609 55.003 22.426 54.995 22.242 54.995 c 21.969 54.991
 21.707 55.034 21.465 55.077 c 21.461 55.073 21.457 55.073 21.453 55.069
 c 21.422 55.046 21.41 54.972 21.387 54.929 c 21.363 54.878 21.344 54.827
 21.324 54.784 c 21.281 54.687 21.223 54.593 21.219 54.487 c 21.34 54.452
 21.461 54.476 21.582 54.48 c 21.668 54.483 21.746 54.483 21.824 54.491 
c 21.898 54.503 21.973 54.519 22.043 54.534 c 22.152 54.554 22.258 54.585
 22.348 54.62 c 22.383 54.632 22.418 54.64 22.449 54.651 c 22.488 54.663
 22.523 54.687 22.562 54.706 c 22.68 54.761 22.797 54.819 22.871 54.913 
c 22.844 54.948 22.828 54.987 22.793 55.015 c 23.383 55.284 m 23.348 55.386
 23.242 55.444 23.094 55.429 c 22.977 55.417 22.875 55.312 22.871 55.19 
c 22.867 55.151 22.871 55.085 22.891 55.038 c 22.898 55.022 22.922 55.015
 22.941 54.995 c 22.98 54.952 23.016 54.917 23.078 54.905 c 23.297 54.874
 23.457 55.081 23.383 55.284 c 22.766 55.249 m 22.742 55.265 22.691 55.261
 22.652 55.269 c 22.465 55.312 22.293 55.347 22.137 55.421 c 22.074 55.452
 22.004 55.472 21.949 55.503 c 21.922 55.515 21.895 55.538 21.863 55.558
 c 21.758 55.628 21.664 55.71 21.602 55.819 c 21.598 55.819 21.598 55.823
 21.594 55.823 c 21.59 55.819 21.586 55.819 21.582 55.815 c 21.543 55.718
 21.469 55.616 21.441 55.495 c 21.43 55.452 21.398 55.249 21.422 55.202 
c 21.441 55.167 21.531 55.155 21.59 55.147 c 21.879 55.108 22.16 55.058 
22.488 55.085 c 22.598 55.093 22.711 55.101 22.789 55.14 c 22.797 55.187
 22.793 55.233 22.766 55.249 c 23.914 54.452 m 23.98 54.394 24.027 54.362
 24.117 54.319 c 24.152 54.304 24.238 54.269 24.266 54.292 c 24.289 54.319
 24.25 54.374 24.242 54.409 c 24.227 54.476 24.203 54.558 24.195 54.612 
c 24.184 54.741 24.203 54.878 24.207 55.007 c 24.215 55.136 24.219 55.257
 24.199 55.39 c 24.164 55.64 24.094 55.823 23.988 56.007 c 23.902 56.14 
23.805 56.261 23.695 56.366 c 23.562 56.468 23.414 56.558 23.234 56.612 
c 23.172 56.632 23.105 56.655 23.043 56.659 c 22.809 56.679 22.566 56.659
 22.402 56.589 c 22.32 56.55 22.23 56.519 22.164 56.476 c 22.078 56.421 
22.02 56.335 21.949 56.284 c 21.855 56.155 21.75 56.038 21.695 55.866 c 
21.723 55.796 21.773 55.745 21.816 55.687 c 21.863 55.659 21.906 55.624 
21.953 55.593 c 22.215 55.48 22.488 55.378 22.824 55.339 c 22.902 55.425
 22.992 55.499 23.137 55.503 c 23.246 55.511 23.363 55.444 23.41 55.362 
c 23.465 55.261 23.477 55.132 23.438 54.999 c 23.566 54.796 23.73 54.605
 23.914 54.452 c 22.105 56.698 m 22.082 56.882 21.98 57.022 21.902 57.159
 c 21.887 57.187 21.879 57.218 21.844 57.23 c 21.781 57.237 21.727 57.202
 21.699 57.163 c 21.859 57.062 22 56.905 22.039 56.687 c 22.059 56.647 22.051
 56.577 22.094 56.562 c 22.113 56.589 22.109 56.655 22.105 56.698 c 23.086
 55.058 m 23.211 55.034 23.273 55.116 23.258 55.23 c 23.234 55.265 23.176
 55.288 23.117 55.276 c 23.016 55.276 23.012 55.089 23.086 55.058 c 23.121
 55.358 m 23.121 55.362 23.121 55.362 23.125 55.362 c 23.172 55.351 23.207
 55.355 23.246 55.335 c 23.34 55.288 23.352 55.128 23.289 55.046 c 23.27
 55.019 23.234 55.007 23.203 54.987 c 22.914 54.89 22.844 55.355 23.121 
55.358 c 24.766 48.972 m 24.699 48.937 24.484 48.882 24.406 48.858 c 24.383
 48.901 24.352 48.991 24.316 49.062 c 24.277 49.136 24.242 49.253 24.211
 49.327 c 24.301 49.347 24.441 49.39 24.488 49.405 c 24.504 49.409 24.727
 49.019 24.766 48.972 c 23.781 49.249 m 23.844 49.261 23.957 49.276 24.02
 49.288 c 24.082 49.136 24.145 48.968 24.191 48.804 c 24.133 48.788 23.988
 48.761 23.922 48.753 c 23.898 48.765 23.891 48.808 23.887 48.839 c 23.855
 48.968 23.793 49.116 23.781 49.249 c 23.27 49.198 m 23.332 49.206 23.5 
49.218 23.578 49.226 c 23.621 49.062 23.652 48.878 23.68 48.714 c 23.59 
48.702 23.41 48.675 23.316 48.671 c 23.309 48.71 23.305 48.737 23.301 48.78
 c 23.289 48.909 23.27 49.073 23.27 49.198 c 22.68 48.636 m 22.688 48.757
 22.707 48.913 22.719 49.038 c 22.723 49.077 22.73 49.147 22.746 49.171 
c 22.832 49.175 22.984 49.171 23.074 49.179 c 23.086 49.081 23.094 48.89
 23.094 48.647 c 23.051 48.64 22.949 48.636 22.891 48.636 c 22.816 48.636
 22.742 48.632 22.68 48.636 c 22.113 48.702 m 22.125 48.815 22.152 48.96
 22.176 49.077 c 22.184 49.112 22.188 49.187 22.207 49.198 c 22.277 49.19
 22.473 49.175 22.547 49.183 c 22.539 49.019 22.508 48.819 22.484 48.659
 c 22.371 48.671 22.203 48.687 22.113 48.702 c 21.559 48.8 m 21.59 48.921
 21.633 49.05 21.672 49.167 c 21.688 49.218 21.691 49.237 21.707 49.261 
c 21.797 49.237 21.922 49.23 22 49.218 c 22 49.136 21.969 49.058 21.949 
48.98 c 21.93 48.897 21.914 48.815 21.891 48.737 c 21.805 48.757 21.648 
48.776 21.559 48.8 c 24.918 48.812 m 24.941 48.776 24.98 48.757 24.992 48.702
 c 24.957 48.651 24.895 48.632 24.84 48.605 c 24.613 48.491 24.363 48.409
 24.094 48.327 c 24.031 48.312 23.965 48.284 23.898 48.272 c 23.758 48.245
 23.613 48.214 23.469 48.194 c 23.316 48.175 23.156 48.179 22.996 48.167
 c 22.918 48.163 22.832 48.159 22.75 48.163 c 22.668 48.167 22.586 48.163
 22.508 48.167 c 22.43 48.175 22.352 48.19 22.273 48.202 c 21.738 48.272
 21.273 48.44 20.871 48.644 c 20.902 48.71 20.957 48.784 21.023 48.827 c
 21.293 48.765 21.582 48.698 21.879 48.651 c 22.227 48.597 22.59 48.53 22.988
 48.554 c 23.332 48.573 23.656 48.608 23.965 48.663 c 24.039 48.679 24.113
 48.694 24.188 48.71 c 24.418 48.757 24.613 48.823 24.809 48.897 c 24.859
 48.921 24.887 48.843 24.918 48.812 c 25.477 48.831 m 25.629 48.917 25.77
 49.019 25.914 49.116 c 26.199 49.312 26.465 49.519 26.734 49.741 c 26.895
 49.843 27.02 49.995 27.25 50.015 c 27.254 50.015 l 27.496 50.022 27.672
 49.882 27.789 49.733 c 27.914 49.573 28.051 49.409 28.031 49.179 c 27.977
 49.163 27.93 49.194 27.875 49.202 c 27.605 49.241 27.391 49.05 27.258 48.937
 c 27.184 48.878 27.117 48.819 27.047 48.757 c 26.977 48.698 26.914 48.628
 26.844 48.569 c 26.699 48.452 26.555 48.343 26.406 48.23 c 26.258 48.116
 26.098 48.019 25.941 47.913 c 25.785 47.812 25.613 47.726 25.445 47.632
 c 25.109 47.448 24.719 47.323 24.309 47.206 c 24.105 47.151 23.887 47.108
 23.664 47.073 c 23.219 47.003 22.676 46.987 22.211 47.046 c 21.75 47.108
 21.344 47.214 20.961 47.358 c 20.77 47.429 20.586 47.503 20.422 47.593 
c 20.336 47.64 20.254 47.687 20.172 47.733 c 19.922 47.87 19.68 48.019 19.457
 48.187 c 19.383 48.241 19.305 48.296 19.23 48.351 c 19.02 48.522 18.824
 48.718 18.609 48.897 c 18.469 49.007 18.273 49.198 18 49.175 c 17.938 49.167
 17.891 49.136 17.828 49.14 c 17.793 49.257 17.855 49.378 17.898 49.448 
c 17.934 49.515 17.969 49.581 18.016 49.64 c 18.137 49.796 18.305 49.983
 18.586 49.98 c 18.73 49.976 18.828 49.913 18.938 49.843 c 19.012 49.796
 19.082 49.741 19.148 49.69 c 19.285 49.581 19.418 49.468 19.547 49.366 
c 19.68 49.265 19.824 49.159 19.969 49.065 c 20.113 48.968 20.254 48.862
 20.406 48.78 c 20.715 48.612 21.043 48.456 21.398 48.327 c 21.578 48.261
 21.762 48.206 21.965 48.167 c 22.168 48.128 22.379 48.089 22.602 48.081
 c 22.855 48.073 23.098 48.069 23.316 48.097 c 23.531 48.12 23.73 48.163
 23.93 48.206 c 24.129 48.245 24.312 48.308 24.492 48.366 c 24.672 48.425
 24.836 48.507 24.996 48.589 c 25.16 48.671 25.32 48.745 25.477 48.831 c
 27.969 48.577 m 27.906 48.472 27.809 48.397 27.73 48.308 c 27.652 48.218
 27.57 48.132 27.484 48.054 c 27.402 47.921 27.312 47.776 27.312 47.577 
c 27.297 47.562 27.281 47.608 27.258 47.612 c 27.148 47.745 27.066 47.897
 26.984 48.058 c 26.973 48.116 26.957 48.171 26.938 48.226 c 26.938 48.269
 26.93 48.308 26.926 48.347 c 27.051 48.565 27.25 48.73 27.438 48.89 c 27.504
 48.948 27.555 49.007 27.641 49.05 c 27.77 49.077 27.984 49.097 28.031 48.983
 c 28.047 48.823 28.02 48.679 27.969 48.577 c 25.957 47.429 m 25.969 47.405
 26 47.37 25.996 47.351 c 25.996 47.327 25.938 47.296 25.91 47.276 c 25.457
 46.948 24.965 46.608 24.523 46.284 c 24.438 46.386 24.379 46.511 24.305
 46.62 c 24.23 46.73 24.164 46.847 24.09 46.956 c 24.121 46.991 24.176 46.995
 24.215 47.019 c 24.484 47.089 24.754 47.183 25.008 47.284 c 25.133 47.335
 25.262 47.382 25.383 47.437 c 25.441 47.464 25.5 47.495 25.562 47.522 c
 25.645 47.562 25.723 47.612 25.797 47.655 c 25.844 47.605 25.902 47.507
 25.957 47.429 c 26.102 47.128 m 26.137 47.147 26.168 47.077 26.191 47.038
 c 26.219 46.999 26.246 46.964 26.262 46.944 c 25.793 46.589 25.309 46.245
 24.832 45.894 c 24.793 45.933 24.754 45.995 24.711 46.046 c 24.695 46.062
 24.672 46.081 24.672 46.093 c 24.672 46.112 24.73 46.147 24.754 46.167 
c 25.082 46.397 25.422 46.64 25.742 46.87 c 25.859 46.956 25.977 47.046 
26.102 47.128 c 26.438 46.897 m 26.465 46.882 26.508 46.87 26.512 46.839
 c 26.512 46.815 26.438 46.78 26.406 46.761 c 25.914 46.401 25.434 46.05
 24.938 45.698 c 24.902 45.675 24.871 45.64 24.832 45.636 c 24.777 45.679
 24.832 45.726 24.855 45.745 c 24.926 45.804 24.988 45.851 25.066 45.897
 c 25.238 46.019 25.414 46.159 25.586 46.28 c 25.801 46.433 26.008 46.585
 26.219 46.741 c 26.293 46.796 26.363 46.851 26.438 46.897 c 26.348 46.382
 m 26.344 46.374 26.336 46.37 26.336 46.366 c 26.312 46.315 26.25 46.237
 26.207 46.198 c 26.16 46.155 26.094 46.124 26.039 46.085 c 25.93 46.007
 25.816 45.925 25.703 45.847 c 25.609 45.78 25.531 45.714 25.422 45.667 
c 25.41 45.663 25.398 45.667 25.391 45.663 c 25.355 45.636 25.297 45.632
 25.238 45.62 c 25.215 45.612 25.195 45.593 25.18 45.616 c 25.176 45.651
 25.215 45.671 25.238 45.687 c 25.508 45.886 25.785 46.089 26.055 46.296
 c 26.156 46.37 26.254 46.452 26.352 46.515 c 26.352 46.515 26.371 46.519
 26.367 46.515 c 26.383 46.519 26.383 46.503 26.398 46.499 c 26.383 46.46
 26.371 46.417 26.348 46.382 c 26.312 45.78 m 26.367 45.823 26.426 45.882
 26.492 45.909 c 26.492 45.913 26.496 45.909 26.5 45.909 c 26.539 45.917
 26.551 45.886 26.57 45.847 c 26.602 45.784 26.645 45.737 26.617 45.644 
c 26.605 45.597 26.582 45.53 26.559 45.495 c 26.551 45.483 26.531 45.468
 26.52 45.448 c 26.469 45.37 26.34 45.269 26.246 45.245 c 26.223 45.237 
26.195 45.237 26.172 45.23 c 26.047 45.194 25.918 45.23 25.836 45.3 c 25.82
 45.312 25.781 45.351 25.781 45.374 c 25.785 45.401 25.836 45.425 25.867
 45.444 c 25.961 45.503 26.055 45.585 26.137 45.644 c 26.199 45.694 26.254
 45.737 26.312 45.78 c 26.918 44.011 m 26.801 43.905 26.68 43.796 26.559
 43.694 c 26.305 43.483 26.039 43.312 25.742 43.163 c 25.59 43.089 25.438
 43.015 25.273 42.956 c 25.105 42.897 24.941 42.839 24.773 42.78 c 24.609
 42.722 24.441 42.671 24.293 42.585 c 24.258 42.565 24.219 42.55 24.184 
42.526 c 24.074 42.472 23.969 42.405 23.863 42.339 c 23.676 42.23 23.512
 42.093 23.371 41.933 c 23.301 41.855 23.223 41.78 23.172 41.683 c 23.137
 41.608 23.09 41.538 23.055 41.464 c 23.043 41.444 23.035 41.401 23 41.401
 c 22.977 41.421 22.98 41.456 22.98 41.491 c 22.98 42.015 22.973 42.612 
22.98 43.144 c 23.652 43.171 24.266 43.21 24.793 43.386 c 25.047 43.468 
25.301 43.554 25.52 43.679 c 25.68 43.772 25.836 43.878 25.988 43.98 c 26.043
 44.015 26.098 44.046 26.141 44.085 c 26.227 44.167 26.316 44.249 26.406
 44.331 c 26.582 44.495 26.734 44.683 26.891 44.87 c 27.117 45.155 27.305
 45.468 27.496 45.8 c 27.559 45.905 27.617 46.022 27.668 46.14 c 27.75 46.319
 27.84 46.483 27.879 46.702 c 27.883 46.706 27.883 46.706 27.883 46.714 
c 27.887 46.714 27.891 46.71 27.895 46.71 c 27.879 46.48 27.852 46.253 27.82
 46.034 c 27.777 45.706 27.711 45.397 27.613 45.12 c 27.582 45.03 27.539
 44.944 27.5 44.858 c 27.426 44.687 27.336 44.519 27.234 44.374 c 27.211
 44.343 27.176 44.319 27.152 44.284 c 27.105 44.222 27.059 44.151 27 44.097
 c 26.973 44.065 26.945 44.034 26.918 44.011 c 25.727 45.745 m 25.766 45.8
 25.84 45.843 25.91 45.894 c 25.98 45.944 26.055 46.015 26.113 46.038 c 
26.141 46.05 26.152 45.983 26.16 45.964 c 26.176 45.933 26.203 45.917 26.219
 45.894 c 26.172 45.827 26.098 45.788 26.039 45.741 c 25.977 45.698 25.918
 45.64 25.852 45.605 c 25.812 45.655 25.77 45.702 25.727 45.745 c 22.965
 43.456 m 22.98 43.983 22.969 44.526 22.969 45.05 c 22.969 45.573 22.977
 46.108 22.977 46.636 c 22.977 46.706 22.965 46.78 22.996 46.839 c 23.27
 46.847 23.508 46.886 23.758 46.917 c 23.793 46.921 23.852 46.94 23.875 
46.933 c 23.938 46.905 23.902 46.69 23.906 46.62 c 23.918 46.507 23.934 
46.401 23.941 46.308 c 23.961 46.085 23.965 45.89 24.016 45.694 c 24.074
 45.468 24.156 45.261 24.262 45.073 c 24.281 45.038 24.309 45.015 24.34 
44.983 c 24.391 44.921 24.438 44.851 24.496 44.8 c 24.547 44.753 24.613 
44.71 24.676 44.671 c 24.805 44.585 24.953 44.554 25.152 44.538 c 25.246
 44.53 25.344 44.53 25.434 44.546 c 25.574 44.573 25.723 44.644 25.84 44.722
 c 25.957 44.804 26.082 44.878 26.18 44.964 c 26.395 45.151 26.598 45.312
 26.781 45.519 c 26.852 45.601 26.922 45.675 26.988 45.753 c 27.016 45.78
 27.027 45.808 27.051 45.835 c 27.066 45.862 27.098 45.886 27.121 45.909
 c 27.348 46.183 27.574 46.48 27.781 46.772 c 27.789 46.78 27.789 46.808
 27.809 46.804 c 27.668 46.269 27.41 45.812 27.125 45.394 c 26.98 45.187
 26.844 44.98 26.68 44.796 c 26.516 44.608 26.352 44.429 26.168 44.257 c
 25.996 44.097 25.781 43.948 25.562 43.819 c 25.23 43.628 24.844 43.487 
24.422 43.39 c 24.281 43.355 24.133 43.327 23.98 43.308 c 23.766 43.284 
23.484 43.28 23.234 43.269 c 23.164 43.265 23.039 43.241 22.996 43.269 c
 22.953 43.296 22.961 43.37 22.965 43.456 c 19.289 45.851 m 19.316 45.858
 19.359 45.819 19.395 45.796 c 19.488 45.722 19.555 45.663 19.66 45.589 
c 19.738 45.53 19.832 45.452 19.934 45.39 c 19.965 45.37 20.02 45.339 20.02
 45.319 c 20.023 45.272 19.941 45.214 19.898 45.19 c 19.805 45.144 19.633
 45.14 19.535 45.19 c 19.496 45.214 19.445 45.272 19.391 45.323 c 19.34 
45.366 19.277 45.409 19.246 45.452 c 19.238 45.464 19.238 45.48 19.23 45.495
 c 19.223 45.511 19.211 45.519 19.211 45.526 c 19.191 45.593 19.215 45.687
 19.223 45.733 c 19.234 45.784 19.234 45.839 19.289 45.851 c 19.441 46.374
 m 19.426 46.397 19.379 46.44 19.406 46.456 c 19.41 46.46 19.422 46.468 
19.422 46.46 c 19.754 46.222 20.082 45.964 20.41 45.714 c 20.469 45.671 
20.523 45.628 20.59 45.593 c 20.594 45.573 20.605 45.558 20.594 45.546 c
 20.52 45.53 20.457 45.589 20.375 45.624 c 20.188 45.698 20.047 45.831 19.895
 45.952 c 19.836 45.995 19.781 46.038 19.727 46.081 c 19.672 46.12 19.609
 46.159 19.562 46.202 c 19.52 46.245 19.477 46.312 19.441 46.374 c 19.297
 46.769 m 19.293 46.804 19.344 46.847 19.367 46.839 c 19.398 46.823 19.438
 46.788 19.473 46.765 c 19.57 46.69 19.684 46.608 19.777 46.538 c 19.902
 46.44 20.039 46.335 20.184 46.241 c 20.254 46.198 20.32 46.14 20.387 46.089
 c 20.562 45.968 20.719 45.855 20.902 45.726 c 20.965 45.679 21.043 45.644
 20.973 45.558 c 20.926 45.569 20.891 45.601 20.855 45.628 c 20.48 45.901
 20.09 46.179 19.703 46.46 c 19.605 46.53 19.504 46.612 19.395 46.687 c 
19.363 46.71 19.301 46.737 19.297 46.769 c 19.68 47.073 m 19.73 47.054 19.82
 46.983 19.875 46.944 c 20.176 46.733 20.473 46.507 20.77 46.284 c 20.828
 46.241 20.891 46.198 20.949 46.155 c 21.008 46.112 21.078 46.073 21.121
 46.015 c 21.09 45.944 21.047 45.886 21 45.827 c 20.926 45.858 20.871 45.913
 20.809 45.956 c 20.391 46.261 19.953 46.577 19.539 46.882 c 19.59 46.944
 19.629 47.015 19.68 47.073 c 20.008 45.624 m 19.984 45.597 19.98 45.562
 19.953 45.546 c 19.883 45.581 19.828 45.636 19.766 45.683 c 19.703 45.73
 19.633 45.769 19.586 45.827 c 19.625 45.87 19.645 45.929 19.68 45.98 c 
19.742 45.952 19.828 45.882 19.883 45.839 c 19.957 45.788 20.023 45.745 
20.074 45.69 c 20.066 45.655 20.031 45.644 20.008 45.624 c 19.812 47.315
 m 19.867 47.417 19.961 47.526 20.023 47.628 c 20.262 47.476 20.535 47.374
 20.809 47.257 c 21.086 47.144 21.379 47.054 21.664 46.956 c 21.684 46.937
 21.699 46.905 21.719 46.878 c 21.609 46.698 21.488 46.507 21.375 46.315
 c 21.352 46.28 21.336 46.245 21.305 46.23 c 21.316 46.222 21.297 46.222
 21.289 46.222 c 21.238 46.226 21.152 46.312 21.094 46.351 c 20.699 46.636
 20.293 46.921 19.883 47.21 c 19.848 47.241 19.789 47.269 19.812 47.315 
c 18.918 48.19 m 18.898 48.14 18.883 48.085 18.867 48.026 c 18.789 47.866
 18.707 47.71 18.598 47.577 c 18.574 47.573 18.562 47.534 18.543 47.538 
c 18.535 47.737 18.465 47.89 18.371 48.015 c 18.336 48.062 18.285 48.101
 18.242 48.144 c 18.199 48.183 18.164 48.23 18.121 48.272 c 18.043 48.362
 17.953 48.44 17.887 48.542 c 17.836 48.647 17.805 48.788 17.824 48.948 
c 17.848 48.995 17.902 49.019 17.953 49.038 c 18.055 49.042 18.137 49.03
 18.215 49.015 c 18.297 48.976 18.348 48.913 18.418 48.855 c 18.508 48.776
 18.59 48.702 18.676 48.616 c 18.773 48.526 18.871 48.44 18.93 48.315 c 
18.926 48.272 18.918 48.233 18.918 48.19 c 21.316 49.347 m 21.367 49.335
 21.457 49.315 21.5 49.304 c 21.477 49.23 21.449 49.171 21.422 49.097 c 
21.395 49.026 21.355 48.917 21.309 48.858 c 21.25 48.87 21.117 48.909 21.066
 48.925 c 21.137 49.05 21.242 49.222 21.316 49.347 c 24.309 54.858 m 24.285
 54.827 24.297 54.78 24.297 54.741 c 24.297 54.608 24.32 54.53 24.352 54.433
 c 24.359 54.405 24.367 54.378 24.375 54.351 c 24.387 54.319 24.383 54.284
 24.41 54.272 c 24.465 54.304 24.48 54.378 24.504 54.437 c 24.531 54.495
 24.73 54.874 24.762 55.503 c 24.773 55.683 24.73 56.175 24.57 56.429 c 
24.52 56.503 24.391 56.753 24.129 56.976 c 23.793 57.257 23.297 57.394 22.797
 57.386 c 22.621 57.382 22.23 57.327 21.973 57.19 c 22.043 57.058 22.105
 56.925 22.133 56.855 c 22.145 56.827 22.191 56.659 22.188 56.593 c 22.234
 56.62 22.293 56.644 22.293 56.644 c 22.32 56.698 22.324 56.815 22.324 56.897
 c 22.324 57.003 22.227 57.065 22.191 57.136 c 22.152 57.202 22.262 57.284
 22.336 57.28 c 22.414 57.276 22.457 57.155 22.477 57.042 c 22.492 56.933
 22.445 56.792 22.434 56.694 c 22.477 56.706 22.52 56.718 22.562 56.726 
c 22.562 56.726 22.648 56.897 22.672 56.972 c 22.703 57.077 22.633 57.163
 22.613 57.241 c 22.598 57.315 22.723 57.366 22.797 57.339 c 22.867 57.315
 22.875 57.187 22.859 57.069 c 22.848 56.964 22.77 56.839 22.73 56.749 c
 22.766 56.753 22.805 56.753 22.84 56.753 c 22.867 56.753 l 22.918 56.796
 22.98 56.905 23.016 56.972 c 23.066 57.069 23.016 57.171 23.012 57.245 
c 23.012 57.323 23.145 57.347 23.211 57.308 c 23.277 57.269 23.258 57.14
 23.223 57.03 c 23.188 56.929 23.086 56.819 23.023 56.741 c 23.062 56.737
 23.102 56.73 23.141 56.722 c 23.199 56.757 23.281 56.851 23.332 56.913 
c 23.395 56.995 23.363 57.105 23.375 57.183 c 23.387 57.261 23.523 57.257
 23.578 57.206 c 23.637 57.155 23.598 57.034 23.543 56.933 c 23.488 56.835
 23.363 56.749 23.293 56.679 c 23.289 56.679 l 23.332 56.667 23.371 56.651
 23.406 56.632 c 23.473 56.651 23.566 56.73 23.629 56.776 c 23.715 56.847
 23.707 56.96 23.734 57.03 c 23.762 57.105 23.895 57.069 23.941 57.011 c
 23.984 56.948 23.918 56.839 23.84 56.749 c 23.766 56.671 23.629 56.612 
23.543 56.562 c 23.578 56.546 23.609 56.522 23.645 56.499 c 23.715 56.507
 23.84 56.569 23.914 56.605 c 24.008 56.651 24.023 56.765 24.066 56.827 
c 24.113 56.894 24.234 56.831 24.266 56.761 c 24.293 56.69 24.207 56.601
 24.109 56.53 c 24.027 56.472 23.871 56.433 23.773 56.397 c 23.809 56.37
 23.84 56.339 23.871 56.304 c 23.945 56.304 24.055 56.327 24.121 56.343 
c 24.227 56.366 24.266 56.472 24.324 56.522 c 24.383 56.573 24.488 56.483
 24.5 56.409 c 24.512 56.335 24.406 56.265 24.297 56.222 c 24.199 56.187
 24.07 56.19 23.977 56.187 c 24.004 56.147 24.031 56.108 24.059 56.069 c
 24.113 56.062 24.184 56.062 24.246 56.062 c 24.355 56.062 24.418 56.155
 24.484 56.194 c 24.555 56.233 24.637 56.124 24.633 56.05 c 24.629 55.972
 24.508 55.929 24.395 55.909 c 24.309 55.894 24.219 55.917 24.141 55.933
 c 24.164 55.886 24.184 55.839 24.203 55.792 c 24.246 55.78 24.301 55.772
 24.348 55.769 c 24.438 55.757 24.504 55.827 24.566 55.855 c 24.629 55.878
 24.688 55.776 24.676 55.714 c 24.664 55.651 24.555 55.624 24.457 55.62 
c 24.383 55.62 24.312 55.644 24.25 55.667 c 24.262 55.628 24.273 55.585 
24.281 55.542 c 24.316 55.526 24.352 55.515 24.387 55.503 c 24.473 55.472
 24.551 55.526 24.617 55.538 c 24.684 55.55 24.719 55.437 24.691 55.378 
c 24.668 55.315 24.559 55.315 24.461 55.335 c 24.406 55.347 24.355 55.374
 24.309 55.401 c 24.309 55.405 l 24.316 55.358 24.32 55.315 24.324 55.269
 c 24.34 55.261 24.359 55.249 24.375 55.241 c 24.453 55.194 24.547 55.241
 24.613 55.245 c 24.68 55.245 24.691 55.124 24.656 55.065 c 24.617 55.007
 24.508 55.022 24.414 55.054 c 24.383 55.065 24.355 55.085 24.328 55.105
 c 24.328 55.058 24.328 55.054 24.324 55.011 c 24.328 55.007 24.332 55.003
 24.336 54.999 c 24.41 54.944 24.5 54.968 24.562 54.956 c 24.629 54.944 
24.633 54.835 24.594 54.788 c 24.555 54.745 24.449 54.78 24.363 54.827 c
 24.344 54.839 24.324 54.855 24.309 54.87 c 21.598 57.226 m 22.047 57.48
 22.434 57.562 22.859 57.562 c 23.164 57.562 23.477 57.519 23.762 57.397
 c 24.426 57.112 25.059 56.37 24.914 55.405 c 24.91 55.476 24.883 55.882
 24.785 56.218 c 24.707 56.476 24.336 57.046 23.871 57.284 c 23.676 57.386
 23.332 57.472 23.027 57.503 c 22.723 57.534 22.184 57.44 21.996 57.358 
c 21.809 57.272 21.77 57.249 21.656 57.194 c 21.629 57.183 21.574 57.14 
21.555 57.175 c 21.543 57.19 21.598 57.226 21.598 57.226 c f*
Q Q
showpage
%%Trailer
end restore
%%EOF
